output.vcd
$date
	Sun Mar 23 20:28:39 2025
$end
$version
	Icarus Verilog
$end
$timescale
	1ns
$end
$scope module tb_riscv_sc $end
$var reg 1 ! clk $end
$var reg 1 " start $end
$scope module riscv_DUT $end
$var wire 1 ! clk $end
$var wire 1 # pcsel $end
$var wire 1 " start $end
$var wire 1 $ zero $end
$var wire 32 % writeData [31:0] $end
$var wire 32 & srcB [31:0] $end
$var wire 32 ' srcA [31:0] $end
$var wire 1 ( regWrite $end
$var wire 32 ) readData2 [31:0] $end
$var wire 32 * readData [31:0] $end
$var wire 32 + pctarget [31:0] $end
$var wire 32 , pcplus4 [31:0] $end
$var wire 32 - pcnext [31:0] $end
$var wire 32 . pc [31:0] $end
$var wire 1 / memtoReg $end
$var wire 1 0 memWrite $end
$var wire 1 1 memRead $end
$var wire 32 2 instr [31:0] $end
$var wire 32 3 imm [31:0] $end
$var wire 1 4 branch $end
$var wire 1 5 ALUSrc $end
$var wire 32 6 ALUOut [31:0] $end
$var wire 2 7 ALUOp [1:0] $end
$var wire 4 8 ALUCtl [3:0] $end
$scope module m_ALU $end
$var wire 32 9 B [31:0] $end
$var wire 4 : ALUCtl [3:0] $end
$var wire 32 ; A [31:0] $end
$var reg 32 < ALUOut [31:0] $end
$var reg 1 = carry $end
$var reg 1 $ zero $end
$upscope $end
$scope module m_ALUCtrl $end
$var wire 3 > funct3 [2:0] $end
$var wire 1 ? funct7 $end
$var wire 2 @ ALUOp [1:0] $end
$var reg 4 A ALUCtl [3:0] $end
$upscope $end
$scope module m_Adder_2 $end
$var wire 32 B sum [31:0] $end
$var wire 32 C b [31:0] $end
$var wire 32 D a [31:0] $end
$upscope $end
$scope module m_Control $end
$var wire 7 E opcode [6:0] $end
$var reg 2 F ALUOp [1:0] $end
$var reg 1 5 ALUSrc $end
$var reg 1 4 branch $end
$var reg 1 1 memRead $end
$var reg 1 0 memWrite $end
$var reg 1 / memtoReg $end
$var reg 1 ( regWrite $end
$upscope $end
$scope module m_DataMemory $end
$var wire 32 G address [31:0] $end
$var wire 1 ! clk $end
$var wire 1 1 memRead $end
$var wire 1 0 memWrite $end
$var wire 1 " rst $end
$var wire 32 H writeData [31:0] $end
$var reg 32 I readData [31:0] $end
$upscope $end
$scope module m_ImmGen $end
$var wire 7 J opcode [6:0] $end
$var wire 32 K inst [31:0] $end
$var parameter 32 L Width $end
$var reg 32 M imm [31:0] $end
$upscope $end
$scope module m_InstMem $end
$var wire 32 N readAddr [31:0] $end
$var wire 32 O inst [31:0] $end
$upscope $end
$scope module m_Mux_ALU $end
$var wire 32 P s1 [31:0] $end
$var wire 1 5 sel $end
$var wire 32 Q s0 [31:0] $end
$var wire 32 R out [31:0] $end
$var parameter 32 S size $end
$upscope $end
$scope module m_Mux_PC $end
$var wire 32 T s1 [31:0] $end
$var wire 1 # sel $end
$var wire 32 U s0 [31:0] $end
$var wire 32 V out [31:0] $end
$var parameter 32 W size $end
$upscope $end
$scope module m_Mux_WriteData $end
$var wire 32 X s0 [31:0] $end
$var wire 32 Y s1 [31:0] $end
$var wire 1 / sel $end
$var wire 32 Z out [31:0] $end
$var parameter 32 [ size $end
$upscope $end
$scope module m_PC $end
$var wire 1 ! clk $end
$var wire 32 \ pc_i [31:0] $end
$var wire 1 " rst $end
$var reg 32 ] pc_o [31:0] $end
$upscope $end
$scope module m_Register $end
$var wire 1 ! clk $end
$var wire 5 ^ readReg1 [4:0] $end
$var wire 5 _ readReg2 [4:0] $end
$var wire 1 ( regWrite $end
$var wire 1 " rst $end
$var wire 32 ` writeData [31:0] $end
$var wire 5 a writeReg [4:0] $end
$var wire 32 b readData2 [31:0] $end
$var wire 32 c readData1 [31:0] $end
$upscope $end
$scope module m_ShiftLeftOne $end
$var wire 32 d i [31:0] $end
$var wire 32 e o [31:0] $end
$upscope $end
$scope module m_pc_plus_4 $end
$var wire 32 f a [31:0] $end
$var wire 32 g b [31:0] $end
$var wire 32 h sum [31:0] $end
$upscope $end
$upscope $end
$upscope $end
$enddefinitions $end
$comment Show the parameter values. $end
$dumpall
b100000 [
b100000 W
b100000 S
b100000 L
$end
#0
$dumpvars
b100 h
b100 g
b0 f
b101000110 e
b10100011 d
b0 c
bx b
b1000 a
b10100011 `
b11 _
b0 ^
b0 ]
b100 \
b10100011 Z
b0 Y
b10100011 X
b100 V
b100 U
b10100011 T
b10100011 R
bx Q
b10100011 P
b1010001100000000010000010011 O
b0 N
b10100011 M
b1010001100000000010000010011 K
b10011 J
b0 I
bx H
b10100011 G
b10 F
b10011 E
b0 D
b10100011 C
b10100011 B
b1 A
b10 @
0?
b0 >
0=
b10100011 <
b0 ;
b1 :
b10100011 9
b1 8
b10 7
b10100011 6
15
04
b10100011 3
b1010001100000000010000010011 2
01
00
0/
b0 .
b100 -
b100 ,
b10100011 +
b0 *
bx )
1(
b0 '
b10100011 &
b10100011 %
x$
0#
0"
0!
$end
#5
b0 )
b0 H
b0 Q
b0 b
1!
#10
0!
1"
#15
b1000001111100 %
b1000001111100 Z
b1000001111100 `
b1000001111100 6
b1000001111100 <
b1000001111100 G
b1000001111100 X
b10000000 '
b10000000 ;
b10000000 c
b111111111100 &
b111111111100 9
b111111111100 R
b1111111111000 e
1?
b10 a
b11100 _
b10 ^
b111111111100 3
b111111111100 C
b111111111100 M
b111111111100 P
b111111111100 d
b1000 -
b1000 V
b1000 \
b11111111110000010000000100010011 2
b11111111110000010000000100010011 K
b11111111110000010000000100010011 O
b1000 ,
b1000 U
b1000 h
b1000000000000 +
b1000000000000 B
b1000000000000 T
b100 .
b100 D
b100 N
b100 ]
b100 f
1!
#20
0!
#25
b0 %
b0 Z
b0 `
b0 8
b0 :
b0 A
b10100011 )
b10100011 H
b10100011 Q
b10100011 b
0(
10
b0 7
b0 @
b0 F
b0 &
b0 9
b0 R
b0 e
b0 6
b0 <
b0 G
b0 X
b100011 J
b10 >
0?
b0 a
b1000 _
b100011 E
b0 3
b0 C
b0 M
b0 P
b0 d
b1000001111100 '
b1000001111100 ;
b1000001111100 c
b1100 -
b1100 V
b1100 \
b100000010010000000100011 2
b100000010010000000100011 K
b100000010010000000100011 O
b1100 ,
b1100 U
b1100 h
b1000 +
b1000 B
b1000 T
b1000 .
b1000 D
b1000 N
b1000 ]
b1000 f
1!
#30
0!
#35
b0 %
b0 Z
b0 `
0=
b0 6
b0 <
b0 G
b0 X
b10 8
b10 :
b10 A
b0 )
b0 H
b0 Q
b0 b
b0 '
b0 ;
b0 c
1(
05
00
b1 7
b1 @
b1 F
b0 &
b0 9
b0 R
b0 e
b110011 J
b0 >
b1000 a
b0 _
b0 ^
b110011 E
b0 3
b0 C
b0 M
b0 P
b0 d
b10000 -
b10000 V
b10000 \
b10000110011 2
b10000110011 K
b10000110011 O
b10000 ,
b10000 U
b10000 h
b1100 +
b1100 B
b1100 T
b1100 .
b1100 D
b1100 N
b1100 ]
b1100 f
1!
#40
0!
#45
b1 8
b1 :
b1 A
15
b10 7
b10 @
b10 F
b10011 J
b101 a
b10011 E
b10100 -
b10100 V
b10100 \
b1010010011 2
b1010010011 K
b1010010011 O
b10100 ,
b10100 U
b10100 h
b10000 +
b10000 B
b10000 T
b10000 .
b10000 D
b10000 N
b10000 ]
b10000 f
1!
#50
0!
#55
b1 %
b1 Z
b1 `
b1 6
b1 <
b1 G
b1 X
b1001 8
b1001 :
b1001 A
b111 &
b111 9
b111 R
b1110 e
b10 >
b110 a
b111 _
b101 ^
b111 3
b111 C
b111 M
b111 P
b111 d
b11000 -
b11000 V
b11000 \
b11100101010001100010011 2
b11100101010001100010011 K
b11100101010001100010011 O
b11000 ,
b11000 U
b11000 h
b11011 +
b11011 B
b11011 T
b10100 .
b10100 D
b10100 N
b10100 ]
b10100 f
1!
#60
0!
#65
0$
b1011 8
b1011 :
b1011 A
b1 '
b1 ;
b1 c
0(
05
b11 7
b11 @
b11 F
14
b0 &
b0 9
b0 R
b11000 e
b1100011 J
b0 >
b1100 a
b0 _
b110 ^
b1100011 E
b1100 3
b1100 C
b1100 M
b1100 P
b1100 d
b11100 -
b11100 V
b11100 \
b110000011001100011 2
b110000011001100011 K
b110000011001100011 O
b11100 ,
b11100 U
b11100 h
b100100 +
b100100 B
b100100 T
b11000 .
b11000 D
b11000 N
b11000 ]
b11000 f
1!
#70
0!
#75
b1 &
b1 9
b1 R
b1 8
b1 :
b1 A
b0 '
b0 ;
b0 c
1(
15
b10 7
b10 @
b10 F
04
b10 e
b10011 J
b101 a
b1 _
b101 ^
b10011 E
b1 3
b1 C
b1 M
b1 P
b1 d
b100000 -
b100000 V
b100000 \
b100101000001010010011 2
b100101000001010010011 K
b100101000001010010011 O
b100000 ,
b100000 U
b100000 h
b11101 +
b11101 B
b11101 T
b11100 .
b11100 D
b11100 N
b11100 ]
b11100 f
1!
#80
0!
#85
1#
1$
b10 %
b10 Z
b10 `
b1011 8
b1011 :
b1011 A
0(
05
b11 7
b11 @
b11 F
14
b0 &
b0 9
b0 R
b11111111111111111111111111101000 e
b10 6
b10 <
b10 G
b10 X
b1100011 J
1?
b10101 a
b0 _
b0 ^
b1100011 E
b11111111111111111111111111110100 3
b11111111111111111111111111110100 C
b11111111111111111111111111110100 M
b11111111111111111111111111110100 P
b11111111111111111111111111110100 d
b0 '
b0 ;
b0 c
b10100 -
b10100 V
b10100 \
b11111110000000000000101011100011 2
b11111110000000000000101011100011 K
b11111110000000000000101011100011 O
b100100 ,
b100100 U
b100100 h
b10100 +
b10100 B
b10100 T
b100000 .
b100000 D
b100000 N
b100000 ]
b100000 f
1!
#90
0!
#95
b1 %
b1 Z
b1 `
b1 6
b1 <
b1 G
b1 X
b111 &
b111 9
b111 R
0#
b1001 8
b1001 :
b1001 A
b1 '
b1 ;
b1 c
1(
15
b10 7
b10 @
b10 F
04
b1110 e
b10011 J
b10 >
0?
b110 a
b111 _
b101 ^
b10011 E
b111 3
b111 C
b111 M
b111 P
b111 d
b11100101010001100010011 2
b11100101010001100010011 K
b11100101010001100010011 O
b11000 -
b11000 V
b11000 \
b11000 ,
b11000 U
b11000 h
b11011 +
b11011 B
b11011 T
b10100 .
b10100 D
b10100 N
b10100 ]
b10100 f
1!
#100
0!
#105
0$
b1011 8
b1011 :
b1011 A
0(
05
b11 7
b11 @
b11 F
14
b0 &
b0 9
b0 R
b11000 e
b1100011 J
b0 >
b1100 a
b0 _
b110 ^
b1100011 E
b1100 3
b1100 C
b1100 M
b1100 P
b1100 d
b11100 -
b11100 V
b11100 \
b110000011001100011 2
b110000011001100011 K
b110000011001100011 O
b11100 ,
b11100 U
b11100 h
b100100 +
b100100 B
b100100 T
b11000 .
b11000 D
b11000 N
b11000 ]
b11000 f
1!
#110
0!
#115
b10 %
b10 Z
b10 `
b10 6
b10 <
b10 G
b10 X
b1 &
b1 9
b1 R
b1 8
b1 :
b1 A
1(
15
b10 7
b10 @
b10 F
04
b10 e
b10011 J
b101 a
b1 _
b101 ^
b10011 E
b1 3
b1 C
b1 M
b1 P
b1 d
b100000 -
b100000 V
b100000 \
b100101000001010010011 2
b100101000001010010011 K
b100101000001010010011 O
b100000 ,
b100000 U
b100000 h
b11101 +
b11101 B
b11101 T
b11100 .
b11100 D
b11100 N
b11100 ]
b11100 f
1!
#120
0!
#125
1#
1$
b11 %
b11 Z
b11 `
b1011 8
b1011 :
b1011 A
0(
05
b11 7
b11 @
b11 F
14
b0 &
b0 9
b0 R
b11111111111111111111111111101000 e
b11 6
b11 <
b11 G
b11 X
b1100011 J
1?
b10101 a
b0 _
b0 ^
b1100011 E
b11111111111111111111111111110100 3
b11111111111111111111111111110100 C
b11111111111111111111111111110100 M
b11111111111111111111111111110100 P
b11111111111111111111111111110100 d
b0 '
b0 ;
b0 c
b10100 -
b10100 V
b10100 \
b11111110000000000000101011100011 2
b11111110000000000000101011100011 K
b11111110000000000000101011100011 O
b100100 ,
b100100 U
b100100 h
b10100 +
b10100 B
b10100 T
b100000 .
b100000 D
b100000 N
b100000 ]
b100000 f
1!
#130
0!
#135
b1 %
b1 Z
b1 `
b1 6
b1 <
b1 G
b1 X
b111 &
b111 9
b111 R
0#
b1001 8
b1001 :
b1001 A
b10 '
b10 ;
b10 c
1(
15
b10 7
b10 @
b10 F
04
b1110 e
b10011 J
b10 >
0?
b110 a
b111 _
b101 ^
b10011 E
b111 3
b111 C
b111 M
b111 P
b111 d
b11100101010001100010011 2
b11100101010001100010011 K
b11100101010001100010011 O
b11000 -
b11000 V
b11000 \
b11000 ,
b11000 U
b11000 h
b11011 +
b11011 B
b11011 T
b10100 .
b10100 D
b10100 N
b10100 ]
b10100 f
1!
#140
0!
#145
0$
b1011 8
b1011 :
b1011 A
b1 '
b1 ;
b1 c
0(
05
b11 7
b11 @
b11 F
14
b0 &
b0 9
b0 R
b11000 e
b1100011 J
b0 >
b1100 a
b0 _
b110 ^
b1100011 E
b1100 3
b1100 C
b1100 M
b1100 P
b1100 d
b11100 -
b11100 V
b11100 \
b110000011001100011 2
b110000011001100011 K
b110000011001100011 O
b11100 ,
b11100 U
b11100 h
b100100 +
b100100 B
b100100 T
b11000 .
b11000 D
b11000 N
b11000 ]
b11000 f
1!
#150
0!
#155
b11 %
b11 Z
b11 `
b11 6
b11 <
b11 G
b11 X
b1 &
b1 9
b1 R
b1 8
b1 :
b1 A
b10 '
b10 ;
b10 c
1(
15
b10 7
b10 @
b10 F
04
b10 e
b10011 J
b101 a
b1 _
b101 ^
b10011 E
b1 3
b1 C
b1 M
b1 P
b1 d
b100000 -
b100000 V
b100000 \
b100101000001010010011 2
b100101000001010010011 K
b100101000001010010011 O
b100000 ,
b100000 U
b100000 h
b11101 +
b11101 B
b11101 T
b11100 .
b11100 D
b11100 N
b11100 ]
b11100 f
1!
#160
0!
#165
1#
1$
b100 %
b100 Z
b100 `
b1011 8
b1011 :
b1011 A
0(
05
b11 7
b11 @
b11 F
14
b0 &
b0 9
b0 R
b11111111111111111111111111101000 e
b100 6
b100 <
b100 G
b100 X
b1100011 J
1?
b10101 a
b0 _
b0 ^
b1100011 E
b11111111111111111111111111110100 3
b11111111111111111111111111110100 C
b11111111111111111111111111110100 M
b11111111111111111111111111110100 P
b11111111111111111111111111110100 d
b0 '
b0 ;
b0 c
b10100 -
b10100 V
b10100 \
b11111110000000000000101011100011 2
b11111110000000000000101011100011 K
b11111110000000000000101011100011 O
b100100 ,
b100100 U
b100100 h
b10100 +
b10100 B
b10100 T
b100000 .
b100000 D
b100000 N
b100000 ]
b100000 f
1!
#170
0!
#175
b1 %
b1 Z
b1 `
b1 6
b1 <
b1 G
b1 X
b111 &
b111 9
b111 R
0#
b1001 8
b1001 :
b1001 A
b11 '
b11 ;
b11 c
1(
15
b10 7
b10 @
b10 F
04
b1110 e
b10011 J
b10 >
0?
b110 a
b111 _
b101 ^
b10011 E
b111 3
b111 C
b111 M
b111 P
b111 d
b11100101010001100010011 2
b11100101010001100010011 K
b11100101010001100010011 O
b11000 -
b11000 V
b11000 \
b11000 ,
b11000 U
b11000 h
b11011 +
b11011 B
b11011 T
b10100 .
b10100 D
b10100 N
b10100 ]
b10100 f
1!
#180
0!
#185
0$
b1011 8
b1011 :
b1011 A
b1 '
b1 ;
b1 c
0(
05
b11 7
b11 @
b11 F
14
b0 &
b0 9
b0 R
b11000 e
b1100011 J
b0 >
b1100 a
b0 _
b110 ^
b1100011 E
b1100 3
b1100 C
b1100 M
b1100 P
b1100 d
b11100 -
b11100 V
b11100 \
b110000011001100011 2
b110000011001100011 K
b110000011001100011 O
b11100 ,
b11100 U
b11100 h
b100100 +
b100100 B
b100100 T
b11000 .
b11000 D
b11000 N
b11000 ]
b11000 f
1!
#190
0!
#195
b100 %
b100 Z
b100 `
b100 6
b100 <
b100 G
b100 X
b1 &
b1 9
b1 R
b1 8
b1 :
b1 A
b11 '
b11 ;
b11 c
1(
15
b10 7
b10 @
b10 F
04
b10 e
b10011 J
b101 a
b1 _
b101 ^
b10011 E
b1 3
b1 C
b1 M
b1 P
b1 d
b100000 -
b100000 V
b100000 \
b100101000001010010011 2
b100101000001010010011 K
b100101000001010010011 O
b100000 ,
b100000 U
b100000 h
b11101 +
b11101 B
b11101 T
b11100 .
b11100 D
b11100 N
b11100 ]
b11100 f
1!
#200
0!
#205
1#
1$
b101 %
b101 Z
b101 `
b1011 8
b1011 :
b1011 A
0(
05
b11 7
b11 @
b11 F
14
b0 &
b0 9
b0 R
b11111111111111111111111111101000 e
b101 6
b101 <
b101 G
b101 X
b1100011 J
1?
b10101 a
b0 _
b0 ^
b1100011 E
b11111111111111111111111111110100 3
b11111111111111111111111111110100 C
b11111111111111111111111111110100 M
b11111111111111111111111111110100 P
b11111111111111111111111111110100 d
b0 '
b0 ;
b0 c
b10100 -
b10100 V
b10100 \
b11111110000000000000101011100011 2
b11111110000000000000101011100011 K
b11111110000000000000101011100011 O
b100100 ,
b100100 U
b100100 h
b10100 +
b10100 B
b10100 T
b100000 .
b100000 D
b100000 N
b100000 ]
b100000 f
1!
#210
0!
#215
b1 %
b1 Z
b1 `
b1 6
b1 <
b1 G
b1 X
b111 &
b111 9
b111 R
0#
b1001 8
b1001 :
b1001 A
b100 '
b100 ;
b100 c
1(
15
b10 7
b10 @
b10 F
04
b1110 e
b10011 J
b10 >
0?
b110 a
b111 _
b101 ^
b10011 E
b111 3
b111 C
b111 M
b111 P
b111 d
b11100101010001100010011 2
b11100101010001100010011 K
b11100101010001100010011 O
b11000 -
b11000 V
b11000 \
b11000 ,
b11000 U
b11000 h
b11011 +
b11011 B
b11011 T
b10100 .
b10100 D
b10100 N
b10100 ]
b10100 f
1!
#220
0!
#225
0$
b1011 8
b1011 :
b1011 A
b1 '
b1 ;
b1 c
0(
05
b11 7
b11 @
b11 F
14
b0 &
b0 9
b0 R
b11000 e
b1100011 J
b0 >
b1100 a
b0 _
b110 ^
b1100011 E
b1100 3
b1100 C
b1100 M
b1100 P
b1100 d
b11100 -
b11100 V
b11100 \
b110000011001100011 2
b110000011001100011 K
b110000011001100011 O
b11100 ,
b11100 U
b11100 h
b100100 +
b100100 B
b100100 T
b11000 .
b11000 D
b11000 N
b11000 ]
b11000 f
1!
#230
0!
#235
b101 %
b101 Z
b101 `
b101 6
b101 <
b101 G
b101 X
b1 &
b1 9
b1 R
b1 8
b1 :
b1 A
b100 '
b100 ;
b100 c
1(
15
b10 7
b10 @
b10 F
04
b10 e
b10011 J
b101 a
b1 _
b101 ^
b10011 E
b1 3
b1 C
b1 M
b1 P
b1 d
b100000 -
b100000 V
b100000 \
b100101000001010010011 2
b100101000001010010011 K
b100101000001010010011 O
b100000 ,
b100000 U
b100000 h
b11101 +
b11101 B
b11101 T
b11100 .
b11100 D
b11100 N
b11100 ]
b11100 f
1!
#240
0!
#245
1#
1$
b110 %
b110 Z
b110 `
b1011 8
b1011 :
b1011 A
0(
05
b11 7
b11 @
b11 F
14
b0 &
b0 9
b0 R
b11111111111111111111111111101000 e
b110 6
b110 <
b110 G
b110 X
b1100011 J
1?
b10101 a
b0 _
b0 ^
b1100011 E
b11111111111111111111111111110100 3
b11111111111111111111111111110100 C
b11111111111111111111111111110100 M
b11111111111111111111111111110100 P
b11111111111111111111111111110100 d
b0 '
b0 ;
b0 c
b10100 -
b10100 V
b10100 \
b11111110000000000000101011100011 2
b11111110000000000000101011100011 K
b11111110000000000000101011100011 O
b100100 ,
b100100 U
b100100 h
b10100 +
b10100 B
b10100 T
b100000 .
b100000 D
b100000 N
b100000 ]
b100000 f
1!
#250
0!
#255
b1 %
b1 Z
b1 `
b1 6
b1 <
b1 G
b1 X
b111 &
b111 9
b111 R
0#
b1001 8
b1001 :
b1001 A
b101 '
b101 ;
b101 c
1(
15
b10 7
b10 @
b10 F
04
b1110 e
b10011 J
b10 >
0?
b110 a
b111 _
b101 ^
b10011 E
b111 3
b111 C
b111 M
b111 P
b111 d
b11100101010001100010011 2
b11100101010001100010011 K
b11100101010001100010011 O
b11000 -
b11000 V
b11000 \
b11000 ,
b11000 U
b11000 h
b11011 +
b11011 B
b11011 T
b10100 .
b10100 D
b10100 N
b10100 ]
b10100 f
1!
#260
0!
#265
0$
b1011 8
b1011 :
b1011 A
b1 '
b1 ;
b1 c
0(
05
b11 7
b11 @
b11 F
14
b0 &
b0 9
b0 R
b11000 e
b1100011 J
b0 >
b1100 a
b0 _
b110 ^
b1100011 E
b1100 3
b1100 C
b1100 M
b1100 P
b1100 d
b11100 -
b11100 V
b11100 \
b110000011001100011 2
b110000011001100011 K
b110000011001100011 O
b11100 ,
b11100 U
b11100 h
b100100 +
b100100 B
b100100 T
b11000 .
b11000 D
b11000 N
b11000 ]
b11000 f
1!
#270
0!
#275
b110 %
b110 Z
b110 `
b110 6
b110 <
b110 G
b110 X
b1 &
b1 9
b1 R
b1 8
b1 :
b1 A
b101 '
b101 ;
b101 c
1(
15
b10 7
b10 @
b10 F
04
b10 e
b10011 J
b101 a
b1 _
b101 ^
b10011 E
b1 3
b1 C
b1 M
b1 P
b1 d
b100000 -
b100000 V
b100000 \
b100101000001010010011 2
b100101000001010010011 K
b100101000001010010011 O
b100000 ,
b100000 U
b100000 h
b11101 +
b11101 B
b11101 T
b11100 .
b11100 D
b11100 N
b11100 ]
b11100 f
1!
#280
0!
#285
1#
1$
b111 %
b111 Z
b111 `
b1011 8
b1011 :
b1011 A
0(
05
b11 7
b11 @
b11 F
14
b0 &
b0 9
b0 R
b11111111111111111111111111101000 e
b111 6
b111 <
b111 G
b111 X
b1100011 J
1?
b10101 a
b0 _
b0 ^
b1100011 E
b11111111111111111111111111110100 3
b11111111111111111111111111110100 C
b11111111111111111111111111110100 M
b11111111111111111111111111110100 P
b11111111111111111111111111110100 d
b0 '
b0 ;
b0 c
b10100 -
b10100 V
b10100 \
b11111110000000000000101011100011 2
b11111110000000000000101011100011 K
b11111110000000000000101011100011 O
b100100 ,
b100100 U
b100100 h
b10100 +
b10100 B
b10100 T
b100000 .
b100000 D
b100000 N
b100000 ]
b100000 f
1!
#290
0!
#295
b1 %
b1 Z
b1 `
b1 6
b1 <
b1 G
b1 X
b111 &
b111 9
b111 R
0#
b1001 8
b1001 :
b1001 A
b110 '
b110 ;
b110 c
1(
15
b10 7
b10 @
b10 F
04
b1110 e
b10011 J
b10 >
0?
b110 a
b111 _
b101 ^
b10011 E
b111 3
b111 C
b111 M
b111 P
b111 d
b11100101010001100010011 2
b11100101010001100010011 K
b11100101010001100010011 O
b11000 -
b11000 V
b11000 \
b11000 ,
b11000 U
b11000 h
b11011 +
b11011 B
b11011 T
b10100 .
b10100 D
b10100 N
b10100 ]
b10100 f
1!
#300
0!
#305
0$
b1011 8
b1011 :
b1011 A
b1 '
b1 ;
b1 c
0(
05
b11 7
b11 @
b11 F
14
b0 &
b0 9
b0 R
b11000 e
b1100011 J
b0 >
b1100 a
b0 _
b110 ^
b1100011 E
b1100 3
b1100 C
b1100 M
b1100 P
b1100 d
b11100 -
b11100 V
b11100 \
b110000011001100011 2
b110000011001100011 K
b110000011001100011 O
b11100 ,
b11100 U
b11100 h
b100100 +
b100100 B
b100100 T
b11000 .
b11000 D
b11000 N
b11000 ]
b11000 f
1!
#310
0!
#315
b111 %
b111 Z
b111 `
b111 6
b111 <
b111 G
b111 X
b1 &
b1 9
b1 R
b1 8
b1 :
b1 A
b110 '
b110 ;
b110 c
1(
15
b10 7
b10 @
b10 F
04
b10 e
b10011 J
b101 a
b1 _
b101 ^
b10011 E
b1 3
b1 C
b1 M
b1 P
b1 d
b100000 -
b100000 V
b100000 \
b100101000001010010011 2
b100101000001010010011 K
b100101000001010010011 O
b100000 ,
b100000 U
b100000 h
b11101 +
b11101 B
b11101 T
b11100 .
b11100 D
b11100 N
b11100 ]
b11100 f
1!
#320
0!
#325
1#
1$
b1000 %
b1000 Z
b1000 `
b1011 8
b1011 :
b1011 A
0(
05
b11 7
b11 @
b11 F
14
b0 &
b0 9
b0 R
b11111111111111111111111111101000 e
b1000 6
b1000 <
b1000 G
b1000 X
b1100011 J
1?
b10101 a
b0 _
b0 ^
b1100011 E
b11111111111111111111111111110100 3
b11111111111111111111111111110100 C
b11111111111111111111111111110100 M
b11111111111111111111111111110100 P
b11111111111111111111111111110100 d
b0 '
b0 ;
b0 c
b10100 -
b10100 V
b10100 \
b11111110000000000000101011100011 2
b11111110000000000000101011100011 K
b11111110000000000000101011100011 O
b100100 ,
b100100 U
b100100 h
b10100 +
b10100 B
b10100 T
b100000 .
b100000 D
b100000 N
b100000 ]
b100000 f
1!
#330
0!
#335
b0 %
b0 Z
b0 `
b0 6
b0 <
b0 G
b0 X
b111 &
b111 9
b111 R
0#
b1001 8
b1001 :
b1001 A
b111 '
b111 ;
b111 c
1(
15
b10 7
b10 @
b10 F
04
b1110 e
b10011 J
b10 >
0?
b110 a
b111 _
b101 ^
b10011 E
b111 3
b111 C
b111 M
b111 P
b111 d
b11100101010001100010011 2
b11100101010001100010011 K
b11100101010001100010011 O
b11000 -
b11000 V
b11000 \
b11000 ,
b11000 U
b11000 h
b11011 +
b11011 B
b11011 T
b10100 .
b10100 D
b10100 N
b10100 ]
b10100 f
1!
#340
0!
#345
1#
b1011 8
b1011 :
b1011 A
b0 '
b0 ;
b0 c
0(
05
b11 7
b11 @
b11 F
14
b0 &
b0 9
b0 R
b11000 e
b1100011 J
b0 >
b1100 a
b0 _
b110 ^
b1100011 E
b1100 3
b1100 C
b1100 M
b1100 P
b1100 d
b100100 -
b100100 V
b100100 \
b110000011001100011 2
b110000011001100011 K
b110000011001100011 O
b11100 ,
b11100 U
b11100 h
b100100 +
b100100 B
b100100 T
b11000 .
b11000 D
b11000 N
b11000 ]
b11000 f
1!
#350
0!
#355
b1010 %
b1010 Z
b1010 `
b1010 6
b1010 <
b1010 G
b1010 X
b1010 &
b1010 9
b1010 R
0#
b100 8
b100 :
b100 A
1(
15
b10 7
b10 @
b10 F
04
b10100 e
b10011 J
b110 >
b110 a
b1010 _
b10011 E
b1010 3
b1010 C
b1010 M
b1010 P
b1010 d
b101000110110001100010011 2
b101000110110001100010011 K
b101000110110001100010011 O
b101000 -
b101000 V
b101000 \
b101000 ,
b101000 U
b101000 h
b101110 +
b101110 B
b101110 T
b100100 .
b100100 D
b100100 N
b100100 ]
b100100 f
1!
#360
0!
#365
b0 %
b0 Z
b0 `
b10100011 *
b10100011 I
b10100011 Y
b0 6
b0 <
b0 G
b0 X
b1001 8
b1001 :
b1001 A
11
b0 &
b0 9
b0 R
b0 e
b11 J
b10 >
b1000 a
b0 _
b10 ^
b11 E
b0 3
b0 C
b0 M
b0 P
b0 d
b1000001111100 '
b1000001111100 ;
b1000001111100 c
b101100 -
b101100 V
b101100 \
b10010010000000011 2
b10010010000000011 K
b10010010000000011 O
b101100 ,
b101100 U
b101100 h
b101000 +
b101000 B
b101000 T
b101000 .
b101000 D
b101000 N
b101000 ]
b101000 f
1!
#370
0!
#375
b1000010000000 %
b1000010000000 Z
b1000010000000 `
b0 *
b0 I
b0 Y
b1000010000000 6
b1000010000000 <
b1000010000000 G
b1000010000000 X
b1 8
b1 :
b1 A
01
b100 &
b100 9
b100 R
b1000 e
b10011 J
b0 >
b10 a
b100 _
b10011 E
b100 3
b100 C
b100 M
b100 P
b100 d
b110000 -
b110000 V
b110000 \
b10000010000000100010011 2
b10000010000000100010011 K
b10000010000000100010011 O
b110000 ,
b110000 U
b110000 h
b110000 +
b110000 B
b110000 T
b101100 .
b101100 D
b101100 N
b101100 ]
b101100 f
1!
#380
0!
#385
b1011 8
b1011 :
b1011 A
b0 %
b0 Z
b0 `
0(
05
b11 7
b11 @
b11 F
b0 &
b0 9
b0 R
b0 e
b0 6
b0 <
b0 G
b0 X
b0 J
b0 a
b0 _
b0 ^
b0 E
b0 3
b0 C
b0 M
b0 P
b0 d
b0 '
b0 ;
b0 c
b110100 -
b110100 V
b110100 \
b0 2
b0 K
b0 O
b110100 ,
b110100 U
b110100 h
b110000 +
b110000 B
b110000 T
b110000 .
b110000 D
b110000 N
b110000 ]
b110000 f
1!
#390
0!
#395
bx &
bx 9
bx R
b0 8
b0 :
b0 A
bx )
bx H
bx Q
bx b
bx '
bx ;
bx c
bx J
bx >
x?
bx a
bx _
bx ^
bx E
b111000 -
b111000 V
b111000 \
bx 2
bx K
bx O
b111000 ,
b111000 U
b111000 h
b110100 +
b110100 B
b110100 T
b110100 .
b110100 D
b110100 N
b110100 ]
b110100 f
1!
#400
0!
#405
b111100 -
b111100 V
b111100 \
b111100 ,
b111100 U
b111100 h
b111000 +
b111000 B
b111000 T
b111000 .
b111000 D
b111000 N
b111000 ]
b111000 f
1!
#410
0!
#415
b1000000 -
b1000000 V
b1000000 \
b1000000 ,
b1000000 U
b1000000 h
b111100 +
b111100 B
b111100 T
b111100 .
b111100 D
b111100 N
b111100 ]
b111100 f
1!
#420
0!
#425
b1000100 -
b1000100 V
b1000100 \
b1000100 ,
b1000100 U
b1000100 h
b1000000 +
b1000000 B
b1000000 T
b1000000 .
b1000000 D
b1000000 N
b1000000 ]
b1000000 f
1!
#430
0!
#435
b1001000 -
b1001000 V
b1001000 \
b1001000 ,
b1001000 U
b1001000 h
b1000100 +
b1000100 B
b1000100 T
b1000100 .
b1000100 D
b1000100 N
b1000100 ]
b1000100 f
1!
#440
0!
#445
b1001100 -
b1001100 V
b1001100 \
b1001100 ,
b1001100 U
b1001100 h
b1001000 +
b1001000 B
b1001000 T
b1001000 .
b1001000 D
b1001000 N
b1001000 ]
b1001000 f
1!
#450
0!
#455
b1010000 -
b1010000 V
b1010000 \
b1010000 ,
b1010000 U
b1010000 h
b1001100 +
b1001100 B
b1001100 T
b1001100 .
b1001100 D
b1001100 N
b1001100 ]
b1001100 f
1!
#460
0!
