q1/simulation/output.vcd
$date
	Tue Mar 25 23:17:10 2025
$end
$version
	Icarus Verilog
$end
$timescale
	1ns
$end
$scope module tb_riscv_sc $end
$var reg 1 ! clk $end
$var reg 1 " start $end
$scope module riscv_DUT $end
$var wire 1 ! clk $end
$var wire 1 # pcsel $end
$var wire 1 " start $end
$var wire 1 $ zero $end
$var wire 32 % storebus [31:0] $end
$var wire 32 & srcB [31:0] $end
$var wire 32 ' srcA [31:0] $end
$var wire 32 ( regWriteData [31:0] $end
$var wire 1 ) regWrite $end
$var wire 32 * readData2 [31:0] $end
$var wire 5 + readData1 [4:0] $end
$var wire 32 , readData [31:0] $end
$var wire 32 - pctarget [31:0] $end
$var wire 32 . pcplus4 [31:0] $end
$var wire 32 / pcnext [31:0] $end
$var wire 32 0 pc [31:0] $end
$var wire 7 1 opcode [6:0] $end
$var wire 2 2 memtoReg [1:0] $end
$var wire 1 3 memWrite $end
$var wire 1 4 memRead $end
$var wire 32 5 loadbus [31:0] $end
$var wire 1 6 jalr $end
$var wire 1 7 isstore $end
$var wire 1 8 isload $end
$var wire 32 9 instr [31:0] $end
$var wire 32 : imm [31:0] $end
$var wire 1 ; funct7 $end
$var wire 3 < funct3 [2:0] $end
$var wire 1 = branch $end
$var wire 1 > ALUSrc $end
$var wire 32 ? ALUOut [31:0] $end
$var wire 2 @ ALUOp [1:0] $end
$var wire 4 A ALUCtl [3:0] $end
$scope module m_ALU $end
$var wire 32 B B [31:0] $end
$var wire 4 C ALUCtl [3:0] $end
$var wire 32 D A [31:0] $end
$var reg 32 E ALUOut [31:0] $end
$var reg 1 F carry $end
$var reg 1 $ zero $end
$upscope $end
$scope module m_ALUCtrl $end
$var wire 3 G funct3 [2:0] $end
$var wire 1 H funct7 $end
$var wire 2 I ALUOp [1:0] $end
$var reg 4 J ALUCtl [3:0] $end
$upscope $end
$scope module m_Adder_2 $end
$var wire 32 K sum [31:0] $end
$var wire 32 L b [31:0] $end
$var wire 32 M a [31:0] $end
$upscope $end
$scope module m_Control $end
$var wire 7 N opcode [6:0] $end
$var reg 2 O ALUOp [1:0] $end
$var reg 1 > ALUSrc $end
$var reg 1 = branch $end
$var reg 1 6 jalr $end
$var reg 1 4 memRead $end
$var reg 1 3 memWrite $end
$var reg 2 P memtoReg [1:0] $end
$var reg 1 ) regWrite $end
$upscope $end
$scope module m_DataMemory $end
$var wire 32 Q address [31:0] $end
$var wire 1 ! clk $end
$var wire 1 4 memRead $end
$var wire 1 3 memWrite $end
$var wire 1 " rst $end
$var wire 32 R writeData [31:0] $end
$var reg 32 S readData [31:0] $end
$upscope $end
$scope module m_ImmGen $end
$var wire 7 T opcode [6:0] $end
$var wire 32 U inst [31:0] $end
$var wire 3 V funct3 [2:0] $end
$var parameter 32 W Width $end
$var reg 32 X imm [31:0] $end
$upscope $end
$scope module m_InstMem $end
$var wire 32 Y readAddr [31:0] $end
$var wire 32 Z inst [31:0] $end
$upscope $end
$scope module m_Mux_ALU $end
$var wire 32 [ s1 [31:0] $end
$var wire 1 > sel $end
$var wire 32 \ s0 [31:0] $end
$var wire 32 ] out [31:0] $end
$var parameter 32 ^ size $end
$upscope $end
$scope module m_PC $end
$var wire 1 ! clk $end
$var wire 32 _ pc_i [31:0] $end
$var wire 1 " rst $end
$var reg 32 ` pc_o [31:0] $end
$upscope $end
$scope module m_Register $end
$var wire 1 ! clk $end
$var wire 5 a readReg1 [4:0] $end
$var wire 5 b readReg2 [4:0] $end
$var wire 1 ) regWrite $end
$var wire 1 " rst $end
$var wire 32 c writeData [31:0] $end
$var wire 5 d writeReg [4:0] $end
$var wire 32 e readData2 [31:0] $end
$var wire 32 f readData1 [31:0] $end
$upscope $end
$scope module m_ShiftLeftOne $end
$var wire 32 g i [31:0] $end
$var wire 32 h o [31:0] $end
$upscope $end
$scope module m_load $end
$var wire 32 i datatowrite [31:0] $end
$var wire 3 j funct3 [2:0] $end
$var wire 1 8 trueop $end
$var reg 32 k part [31:0] $end
$upscope $end
$scope module m_pc_plus_4 $end
$var wire 32 l a [31:0] $end
$var wire 32 m b [31:0] $end
$var wire 32 n sum [31:0] $end
$upscope $end
$scope module m_store $end
$var wire 32 o datatowrite [31:0] $end
$var wire 3 p funct3 [2:0] $end
$var wire 1 7 trueop $end
$var reg 32 q part [31:0] $end
$upscope $end
$upscope $end
$upscope $end
$enddefinitions $end
$comment Show the parameter values. $end
$dumpall
b100000 ^
b100000 W
$end
#0
$dumpvars
bx q
b0 p
bx o
b100 n
b100 m
b0 l
b0 k
b0 j
b0 i
b101000110 h
b10100011 g
b0 f
bx e
b1000 d
b10100011 c
b11 b
b0 a
b0 `
b100 _
b10100011 ]
bx \
b10100011 [
b1010001100000000010000010011 Z
b0 Y
b10100011 X
b0 V
b1010001100000000010000010011 U
b10011 T
b0 S
b10100011 R
b10100011 Q
b0 P
b10 O
b10011 N
b0 M
b10100011 L
b10100011 K
b1 J
b10 I
0H
b0 G
0F
b10100011 E
b0 D
b1 C
b10100011 B
b1 A
b10 @
b10100011 ?
1>
0=
b0 <
0;
b10100011 :
b1010001100000000010000010011 9
08
07
06
b0 5
04
03
b0 2
b10011 1
b0 0
b100 /
b100 .
b10100011 -
b0 ,
b0 +
bx *
1)
b10100011 (
b0 '
b10100011 &
bx %
x$
0#
0"
0!
$end
#5
b0 %
b0 q
b0 *
b0 \
b0 e
b0 o
1!
#10
0!
1"
#15
b1000001111100 (
b1000001111100 R
b1000001111100 c
b10000000 '
b10000000 D
b10000000 f
b1000001111100 ?
b1000001111100 E
b1000001111100 Q
b10 +
b10 a
b111111111100 &
b111111111100 B
b111111111100 ]
b1111111111000 h
b1000 /
b1000 _
1H
b10 d
b11100 b
1;
b111111111100 :
b111111111100 L
b111111111100 X
b111111111100 [
b111111111100 g
b11111111110000010000000100010011 9
b11111111110000010000000100010011 U
b11111111110000010000000100010011 Z
b1000 .
b1000 n
b1000000000000 -
b1000000000000 K
b100 0
b100 M
b100 Y
b100 `
b100 l
1!
#20
0!
#25
b10100011 %
b10100011 q
b0 (
b0 R
b0 c
b0 A
b0 C
b0 J
b10100011 *
b10100011 \
b10100011 e
b10100011 o
0)
13
b0 @
b0 I
b0 O
b0 &
b0 B
b0 ]
b0 h
b0 ?
b0 E
b0 Q
b1100 /
b1100 _
b10 V
b100011 T
b10 G
0H
b0 d
b1000 b
b100011 N
0;
b10 <
b10 j
b10 p
17
b100011 1
b0 :
b0 L
b0 X
b0 [
b0 g
b1000001111100 '
b1000001111100 D
b1000001111100 f
b100000010010000000100011 9
b100000010010000000100011 U
b100000010010000000100011 Z
b1100 .
b1100 n
b1000 -
b1000 K
b1000 0
b1000 M
b1000 Y
b1000 `
b1000 l
1!
#30
0!
#35
b0 (
b0 R
b0 c
b0 %
b0 q
b0 '
b0 D
b0 f
b0 ?
b0 E
b0 Q
b10 A
b10 C
b10 J
b0 *
b0 \
b0 e
b0 o
b0 +
b0 a
1)
0>
03
b1 @
b1 I
b1 O
b0 &
b0 B
b0 ]
b0 h
b10000 /
b10000 _
b0 V
b110011 T
b0 G
b1000 d
b0 b
b110011 N
b0 <
b0 j
b0 p
07
b110011 1
b0 :
b0 L
b0 X
b0 [
b0 g
b10000110011 9
b10000110011 U
b10000110011 Z
b10000 .
b10000 n
b1100 -
b1100 K
b1100 0
b1100 M
b1100 Y
b1100 `
b1100 l
1!
#40
0!
#45
b1 A
b1 C
b1 J
1>
b10 @
b10 I
b10 O
b10100 /
b10100 _
b10011 T
b101 d
b10011 N
b10011 1
b1010010011 9
b1010010011 U
b1010010011 Z
b10100 .
b10100 n
b10000 -
b10000 K
b10000 0
b10000 M
b10000 Y
b10000 `
b10000 l
1!
#50
0!
#55
b1 (
b1 R
b1 c
b1 ?
b1 E
b1 Q
b1001 A
b1001 C
b1001 J
b101 +
b101 a
b111 &
b111 B
b111 ]
b1110 h
b11000 /
b11000 _
b10 V
b10 G
b110 d
b111 b
b10 <
b10 j
b10 p
b111 :
b111 L
b111 X
b111 [
b111 g
b11100101010001100010011 9
b11100101010001100010011 U
b11100101010001100010011 Z
b11000 .
b11000 n
b11011 -
b11011 K
b10100 0
b10100 M
b10100 Y
b10100 `
b10100 l
1!
#60
0!
#65
b1 '
b1 D
b1 f
0#
0$
b1011 A
b1011 C
b1011 J
b110 +
b110 a
0)
0>
b11 @
b11 I
b11 O
1=
b0 &
b0 B
b0 ]
b11000 h
b11100 /
b11100 _
b0 V
b1100011 T
b0 G
b1100 d
b0 b
b1100011 N
b0 <
b0 j
b0 p
b1100011 1
b1100 :
b1100 L
b1100 X
b1100 [
b1100 g
b110000011001100011 9
b110000011001100011 U
b110000011001100011 Z
b11100 .
b11100 n
b100100 -
b100100 K
b11000 0
b11000 M
b11000 Y
b11000 `
b11000 l
1!
#70
0!
#75
b0 '
b0 D
b0 f
b1 &
b1 B
b1 ]
b1 A
b1 C
b1 J
b101 +
b101 a
1)
1>
b10 @
b10 I
b10 O
0=
b10 h
b100000 /
b100000 _
b10011 T
b101 d
b1 b
b10011 N
b10011 1
b1 :
b1 L
b1 X
b1 [
b1 g
b100101000001010010011 9
b100101000001010010011 U
b100101000001010010011 Z
b100000 .
b100000 n
b11101 -
b11101 K
b11100 0
b11100 M
b11100 Y
b11100 `
b11100 l
1!
#80
0!
#85
1#
1$
b10 (
b10 R
b10 c
b1011 A
b1011 C
b1011 J
b0 +
b0 a
0)
0>
b11 @
b11 I
b11 O
1=
b0 &
b0 B
b0 ]
b11111111111111111111111111101000 h
b10 ?
b10 E
b10 Q
b10100 /
b10100 _
b1100011 T
1H
b10101 d
b0 b
b1100011 N
1;
b1100011 1
b11111111111111111111111111110100 :
b11111111111111111111111111110100 L
b11111111111111111111111111110100 X
b11111111111111111111111111110100 [
b11111111111111111111111111110100 g
b0 '
b0 D
b0 f
b11111110000000000000101011100011 9
b11111110000000000000101011100011 U
b11111110000000000000101011100011 Z
b100100 .
b100100 n
b10100 -
b10100 K
b100000 0
b100000 M
b100000 Y
b100000 `
b100000 l
1!
#90
0!
#95
b1 (
b1 R
b1 c
b1 ?
b1 E
b1 Q
b1 '
b1 D
b1 f
b111 &
b111 B
b111 ]
0#
b1001 A
b1001 C
b1001 J
b101 +
b101 a
1)
1>
b10 @
b10 I
b10 O
0=
b1110 h
b10 V
b10011 T
b10 G
0H
b110 d
b111 b
b10011 N
0;
b10 <
b10 j
b10 p
b10011 1
b111 :
b111 L
b111 X
b111 [
b111 g
b11100101010001100010011 9
b11100101010001100010011 U
b11100101010001100010011 Z
b11000 /
b11000 _
b11000 .
b11000 n
b11011 -
b11011 K
b10100 0
b10100 M
b10100 Y
b10100 `
b10100 l
1!
#100
0!
#105
0$
b1011 A
b1011 C
b1011 J
b110 +
b110 a
0)
0>
b11 @
b11 I
b11 O
1=
b0 &
b0 B
b0 ]
b11000 h
b11100 /
b11100 _
b0 V
b1100011 T
b0 G
b1100 d
b0 b
b1100011 N
b0 <
b0 j
b0 p
b1100011 1
b1100 :
b1100 L
b1100 X
b1100 [
b1100 g
b110000011001100011 9
b110000011001100011 U
b110000011001100011 Z
b11100 .
b11100 n
b100100 -
b100100 K
b11000 0
b11000 M
b11000 Y
b11000 `
b11000 l
1!
#110
0!
#115
b10 (
b10 R
b10 c
b10 ?
b10 E
b10 Q
b1 &
b1 B
b1 ]
b1 A
b1 C
b1 J
b101 +
b101 a
1)
1>
b10 @
b10 I
b10 O
0=
b10 h
b100000 /
b100000 _
b10011 T
b101 d
b1 b
b10011 N
b10011 1
b1 :
b1 L
b1 X
b1 [
b1 g
b100101000001010010011 9
b100101000001010010011 U
b100101000001010010011 Z
b100000 .
b100000 n
b11101 -
b11101 K
b11100 0
b11100 M
b11100 Y
b11100 `
b11100 l
1!
#120
0!
#125
1#
1$
b11 (
b11 R
b11 c
b1011 A
b1011 C
b1011 J
b0 +
b0 a
0)
0>
b11 @
b11 I
b11 O
1=
b0 &
b0 B
b0 ]
b11111111111111111111111111101000 h
b11 ?
b11 E
b11 Q
b10100 /
b10100 _
b1100011 T
1H
b10101 d
b0 b
b1100011 N
1;
b1100011 1
b11111111111111111111111111110100 :
b11111111111111111111111111110100 L
b11111111111111111111111111110100 X
b11111111111111111111111111110100 [
b11111111111111111111111111110100 g
b0 '
b0 D
b0 f
b11111110000000000000101011100011 9
b11111110000000000000101011100011 U
b11111110000000000000101011100011 Z
b100100 .
b100100 n
b10100 -
b10100 K
b100000 0
b100000 M
b100000 Y
b100000 `
b100000 l
1!
#130
0!
#135
b1 (
b1 R
b1 c
b1 ?
b1 E
b1 Q
b10 '
b10 D
b10 f
b111 &
b111 B
b111 ]
0#
b1001 A
b1001 C
b1001 J
b101 +
b101 a
1)
1>
b10 @
b10 I
b10 O
0=
b1110 h
b10 V
b10011 T
b10 G
0H
b110 d
b111 b
b10011 N
0;
b10 <
b10 j
b10 p
b10011 1
b111 :
b111 L
b111 X
b111 [
b111 g
b11100101010001100010011 9
b11100101010001100010011 U
b11100101010001100010011 Z
b11000 /
b11000 _
b11000 .
b11000 n
b11011 -
b11011 K
b10100 0
b10100 M
b10100 Y
b10100 `
b10100 l
1!
#140
0!
#145
b1 '
b1 D
b1 f
0$
b1011 A
b1011 C
b1011 J
b110 +
b110 a
0)
0>
b11 @
b11 I
b11 O
1=
b0 &
b0 B
b0 ]
b11000 h
b11100 /
b11100 _
b0 V
b1100011 T
b0 G
b1100 d
b0 b
b1100011 N
b0 <
b0 j
b0 p
b1100011 1
b1100 :
b1100 L
b1100 X
b1100 [
b1100 g
b110000011001100011 9
b110000011001100011 U
b110000011001100011 Z
b11100 .
b11100 n
b100100 -
b100100 K
b11000 0
b11000 M
b11000 Y
b11000 `
b11000 l
1!
#150
0!
#155
b11 (
b11 R
b11 c
b11 ?
b11 E
b11 Q
b10 '
b10 D
b10 f
b1 &
b1 B
b1 ]
b1 A
b1 C
b1 J
b101 +
b101 a
1)
1>
b10 @
b10 I
b10 O
0=
b10 h
b100000 /
b100000 _
b10011 T
b101 d
b1 b
b10011 N
b10011 1
b1 :
b1 L
b1 X
b1 [
b1 g
b100101000001010010011 9
b100101000001010010011 U
b100101000001010010011 Z
b100000 .
b100000 n
b11101 -
b11101 K
b11100 0
b11100 M
b11100 Y
b11100 `
b11100 l
1!
#160
0!
#165
1#
1$
b100 (
b100 R
b100 c
b1011 A
b1011 C
b1011 J
b0 +
b0 a
0)
0>
b11 @
b11 I
b11 O
1=
b0 &
b0 B
b0 ]
b11111111111111111111111111101000 h
b100 ?
b100 E
b100 Q
b10100 /
b10100 _
b1100011 T
1H
b10101 d
b0 b
b1100011 N
1;
b1100011 1
b11111111111111111111111111110100 :
b11111111111111111111111111110100 L
b11111111111111111111111111110100 X
b11111111111111111111111111110100 [
b11111111111111111111111111110100 g
b0 '
b0 D
b0 f
b11111110000000000000101011100011 9
b11111110000000000000101011100011 U
b11111110000000000000101011100011 Z
b100100 .
b100100 n
b10100 -
b10100 K
b100000 0
b100000 M
b100000 Y
b100000 `
b100000 l
1!
#170
0!
#175
b1 (
b1 R
b1 c
b1 ?
b1 E
b1 Q
b11 '
b11 D
b11 f
b111 &
b111 B
b111 ]
0#
b1001 A
b1001 C
b1001 J
b101 +
b101 a
1)
1>
b10 @
b10 I
b10 O
0=
b1110 h
b10 V
b10011 T
b10 G
0H
b110 d
b111 b
b10011 N
0;
b10 <
b10 j
b10 p
b10011 1
b111 :
b111 L
b111 X
b111 [
b111 g
b11100101010001100010011 9
b11100101010001100010011 U
b11100101010001100010011 Z
b11000 /
b11000 _
b11000 .
b11000 n
b11011 -
b11011 K
b10100 0
b10100 M
b10100 Y
b10100 `
b10100 l
1!
#180
0!
#185
b1 '
b1 D
b1 f
0$
b1011 A
b1011 C
b1011 J
b110 +
b110 a
0)
0>
b11 @
b11 I
b11 O
1=
b0 &
b0 B
b0 ]
b11000 h
b11100 /
b11100 _
b0 V
b1100011 T
b0 G
b1100 d
b0 b
b1100011 N
b0 <
b0 j
b0 p
b1100011 1
b1100 :
b1100 L
b1100 X
b1100 [
b1100 g
b110000011001100011 9
b110000011001100011 U
b110000011001100011 Z
b11100 .
b11100 n
b100100 -
b100100 K
b11000 0
b11000 M
b11000 Y
b11000 `
b11000 l
1!
#190
0!
#195
b100 (
b100 R
b100 c
b100 ?
b100 E
b100 Q
b11 '
b11 D
b11 f
b1 &
b1 B
b1 ]
b1 A
b1 C
b1 J
b101 +
b101 a
1)
1>
b10 @
b10 I
b10 O
0=
b10 h
b100000 /
b100000 _
b10011 T
b101 d
b1 b
b10011 N
b10011 1
b1 :
b1 L
b1 X
b1 [
b1 g
b100101000001010010011 9
b100101000001010010011 U
b100101000001010010011 Z
b100000 .
b100000 n
b11101 -
b11101 K
b11100 0
b11100 M
b11100 Y
b11100 `
b11100 l
1!
#200
0!
#205
1#
1$
b101 (
b101 R
b101 c
b1011 A
b1011 C
b1011 J
b0 +
b0 a
0)
0>
b11 @
b11 I
b11 O
1=
b0 &
b0 B
b0 ]
b11111111111111111111111111101000 h
b101 ?
b101 E
b101 Q
b10100 /
b10100 _
b1100011 T
1H
b10101 d
b0 b
b1100011 N
1;
b1100011 1
b11111111111111111111111111110100 :
b11111111111111111111111111110100 L
b11111111111111111111111111110100 X
b11111111111111111111111111110100 [
b11111111111111111111111111110100 g
b0 '
b0 D
b0 f
b11111110000000000000101011100011 9
b11111110000000000000101011100011 U
b11111110000000000000101011100011 Z
b100100 .
b100100 n
b10100 -
b10100 K
b100000 0
b100000 M
b100000 Y
b100000 `
b100000 l
1!
#210
0!
#215
b1 (
b1 R
b1 c
b1 ?
b1 E
b1 Q
b100 '
b100 D
b100 f
b111 &
b111 B
b111 ]
0#
b1001 A
b1001 C
b1001 J
b101 +
b101 a
1)
1>
b10 @
b10 I
b10 O
0=
b1110 h
b10 V
b10011 T
b10 G
0H
b110 d
b111 b
b10011 N
0;
b10 <
b10 j
b10 p
b10011 1
b111 :
b111 L
b111 X
b111 [
b111 g
b11100101010001100010011 9
b11100101010001100010011 U
b11100101010001100010011 Z
b11000 /
b11000 _
b11000 .
b11000 n
b11011 -
b11011 K
b10100 0
b10100 M
b10100 Y
b10100 `
b10100 l
1!
#220
0!
#225
b1 '
b1 D
b1 f
0$
b1011 A
b1011 C
b1011 J
b110 +
b110 a
0)
0>
b11 @
b11 I
b11 O
1=
b0 &
b0 B
b0 ]
b11000 h
b11100 /
b11100 _
b0 V
b1100011 T
b0 G
b1100 d
b0 b
b1100011 N
b0 <
b0 j
b0 p
b1100011 1
b1100 :
b1100 L
b1100 X
b1100 [
b1100 g
b110000011001100011 9
b110000011001100011 U
b110000011001100011 Z
b11100 .
b11100 n
b100100 -
b100100 K
b11000 0
b11000 M
b11000 Y
b11000 `
b11000 l
1!
#230
0!
#235
b101 (
b101 R
b101 c
b101 ?
b101 E
b101 Q
b100 '
b100 D
b100 f
b1 &
b1 B
b1 ]
b1 A
b1 C
b1 J
b101 +
b101 a
1)
1>
b10 @
b10 I
b10 O
0=
b10 h
b100000 /
b100000 _
b10011 T
b101 d
b1 b
b10011 N
b10011 1
b1 :
b1 L
b1 X
b1 [
b1 g
b100101000001010010011 9
b100101000001010010011 U
b100101000001010010011 Z
b100000 .
b100000 n
b11101 -
b11101 K
b11100 0
b11100 M
b11100 Y
b11100 `
b11100 l
1!
#240
0!
#245
1#
1$
b110 (
b110 R
b110 c
b1011 A
b1011 C
b1011 J
b0 +
b0 a
0)
0>
b11 @
b11 I
b11 O
1=
b0 &
b0 B
b0 ]
b11111111111111111111111111101000 h
b110 ?
b110 E
b110 Q
b10100 /
b10100 _
b1100011 T
1H
b10101 d
b0 b
b1100011 N
1;
b1100011 1
b11111111111111111111111111110100 :
b11111111111111111111111111110100 L
b11111111111111111111111111110100 X
b11111111111111111111111111110100 [
b11111111111111111111111111110100 g
b0 '
b0 D
b0 f
b11111110000000000000101011100011 9
b11111110000000000000101011100011 U
b11111110000000000000101011100011 Z
b100100 .
b100100 n
b10100 -
b10100 K
b100000 0
b100000 M
b100000 Y
b100000 `
b100000 l
1!
#250
0!
#255
b1 (
b1 R
b1 c
b1 ?
b1 E
b1 Q
b101 '
b101 D
b101 f
b111 &
b111 B
b111 ]
0#
b1001 A
b1001 C
b1001 J
b101 +
b101 a
1)
1>
b10 @
b10 I
b10 O
0=
b1110 h
b10 V
b10011 T
b10 G
0H
b110 d
b111 b
b10011 N
0;
b10 <
b10 j
b10 p
b10011 1
b111 :
b111 L
b111 X
b111 [
b111 g
b11100101010001100010011 9
b11100101010001100010011 U
b11100101010001100010011 Z
b11000 /
b11000 _
b11000 .
b11000 n
b11011 -
b11011 K
b10100 0
b10100 M
b10100 Y
b10100 `
b10100 l
1!
#260
0!
#265
b1 '
b1 D
b1 f
0$
b1011 A
b1011 C
b1011 J
b110 +
b110 a
0)
0>
b11 @
b11 I
b11 O
1=
b0 &
b0 B
b0 ]
b11000 h
b11100 /
b11100 _
b0 V
b1100011 T
b0 G
b1100 d
b0 b
b1100011 N
b0 <
b0 j
b0 p
b1100011 1
b1100 :
b1100 L
b1100 X
b1100 [
b1100 g
b110000011001100011 9
b110000011001100011 U
b110000011001100011 Z
b11100 .
b11100 n
b100100 -
b100100 K
b11000 0
b11000 M
b11000 Y
b11000 `
b11000 l
1!
#270
0!
#275
b110 (
b110 R
b110 c
b110 ?
b110 E
b110 Q
b101 '
b101 D
b101 f
b1 &
b1 B
b1 ]
b1 A
b1 C
b1 J
b101 +
b101 a
1)
1>
b10 @
b10 I
b10 O
0=
b10 h
b100000 /
b100000 _
b10011 T
b101 d
b1 b
b10011 N
b10011 1
b1 :
b1 L
b1 X
b1 [
b1 g
b100101000001010010011 9
b100101000001010010011 U
b100101000001010010011 Z
b100000 .
b100000 n
b11101 -
b11101 K
b11100 0
b11100 M
b11100 Y
b11100 `
b11100 l
1!
#280
0!
#285
1#
1$
b111 (
b111 R
b111 c
b1011 A
b1011 C
b1011 J
b0 +
b0 a
0)
0>
b11 @
b11 I
b11 O
1=
b0 &
b0 B
b0 ]
b11111111111111111111111111101000 h
b111 ?
b111 E
b111 Q
b10100 /
b10100 _
b1100011 T
1H
b10101 d
b0 b
b1100011 N
1;
b1100011 1
b11111111111111111111111111110100 :
b11111111111111111111111111110100 L
b11111111111111111111111111110100 X
b11111111111111111111111111110100 [
b11111111111111111111111111110100 g
b0 '
b0 D
b0 f
b11111110000000000000101011100011 9
b11111110000000000000101011100011 U
b11111110000000000000101011100011 Z
b100100 .
b100100 n
b10100 -
b10100 K
b100000 0
b100000 M
b100000 Y
b100000 `
b100000 l
1!
#290
0!
#295
b1 (
b1 R
b1 c
b1 ?
b1 E
b1 Q
b110 '
b110 D
b110 f
b111 &
b111 B
b111 ]
0#
b1001 A
b1001 C
b1001 J
b101 +
b101 a
1)
1>
b10 @
b10 I
b10 O
0=
b1110 h
b10 V
b10011 T
b10 G
0H
b110 d
b111 b
b10011 N
0;
b10 <
b10 j
b10 p
b10011 1
b111 :
b111 L
b111 X
b111 [
b111 g
b11100101010001100010011 9
b11100101010001100010011 U
b11100101010001100010011 Z
b11000 /
b11000 _
b11000 .
b11000 n
b11011 -
b11011 K
b10100 0
b10100 M
b10100 Y
b10100 `
b10100 l
1!
#300
0!
#305
b1 '
b1 D
b1 f
0$
b1011 A
b1011 C
b1011 J
b110 +
b110 a
0)
0>
b11 @
b11 I
b11 O
1=
b0 &
b0 B
b0 ]
b11000 h
b11100 /
b11100 _
b0 V
b1100011 T
b0 G
b1100 d
b0 b
b1100011 N
b0 <
b0 j
b0 p
b1100011 1
b1100 :
b1100 L
b1100 X
b1100 [
b1100 g
b110000011001100011 9
b110000011001100011 U
b110000011001100011 Z
b11100 .
b11100 n
b100100 -
b100100 K
b11000 0
b11000 M
b11000 Y
b11000 `
b11000 l
1!
#310
0!
#315
b111 (
b111 R
b111 c
b111 ?
b111 E
b111 Q
b110 '
b110 D
b110 f
b1 &
b1 B
b1 ]
b1 A
b1 C
b1 J
b101 +
b101 a
1)
1>
b10 @
b10 I
b10 O
0=
b10 h
b100000 /
b100000 _
b10011 T
b101 d
b1 b
b10011 N
b10011 1
b1 :
b1 L
b1 X
b1 [
b1 g
b100101000001010010011 9
b100101000001010010011 U
b100101000001010010011 Z
b100000 .
b100000 n
b11101 -
b11101 K
b11100 0
b11100 M
b11100 Y
b11100 `
b11100 l
1!
#320
0!
#325
1#
1$
b1000 (
b1000 R
b1000 c
b1011 A
b1011 C
b1011 J
b0 +
b0 a
0)
0>
b11 @
b11 I
b11 O
1=
b0 &
b0 B
b0 ]
b11111111111111111111111111101000 h
b1000 ?
b1000 E
b1000 Q
b10100 /
b10100 _
b1100011 T
1H
b10101 d
b0 b
b1100011 N
1;
b1100011 1
b11111111111111111111111111110100 :
b11111111111111111111111111110100 L
b11111111111111111111111111110100 X
b11111111111111111111111111110100 [
b11111111111111111111111111110100 g
b0 '
b0 D
b0 f
b11111110000000000000101011100011 9
b11111110000000000000101011100011 U
b11111110000000000000101011100011 Z
b100100 .
b100100 n
b10100 -
b10100 K
b100000 0
b100000 M
b100000 Y
b100000 `
b100000 l
1!
#330
0!
#335
b0 (
b0 R
b0 c
b0 ?
b0 E
b0 Q
b111 '
b111 D
b111 f
b111 &
b111 B
b111 ]
0#
b1001 A
b1001 C
b1001 J
b101 +
b101 a
1)
1>
b10 @
b10 I
b10 O
0=
b1110 h
b10 V
b10011 T
b10 G
0H
b110 d
b111 b
b10011 N
0;
b10 <
b10 j
b10 p
b10011 1
b111 :
b111 L
b111 X
b111 [
b111 g
b11100101010001100010011 9
b11100101010001100010011 U
b11100101010001100010011 Z
b11000 /
b11000 _
b11000 .
b11000 n
b11011 -
b11011 K
b10100 0
b10100 M
b10100 Y
b10100 `
b10100 l
1!
#340
0!
#345
1#
b0 '
b0 D
b0 f
1$
b1011 A
b1011 C
b1011 J
b110 +
b110 a
0)
0>
b11 @
b11 I
b11 O
1=
b0 &
b0 B
b0 ]
b11000 h
b100100 /
b100100 _
b0 V
b1100011 T
b0 G
b1100 d
b0 b
b1100011 N
b0 <
b0 j
b0 p
b1100011 1
b1100 :
b1100 L
b1100 X
b1100 [
b1100 g
b110000011001100011 9
b110000011001100011 U
b110000011001100011 Z
b11100 .
b11100 n
b100100 -
b100100 K
b11000 0
b11000 M
b11000 Y
b11000 `
b11000 l
1!
#350
0!
#355
b1010 (
b1010 R
b1010 c
b1010 ?
b1010 E
b1010 Q
b1010 &
b1010 B
b1010 ]
0#
b100 A
b100 C
b100 J
1)
1>
b10 @
b10 I
b10 O
0=
b10100 h
b110 V
b10011 T
b110 G
b110 d
b1010 b
b10011 N
b110 <
b110 j
b110 p
b10011 1
b1010 :
b1010 L
b1010 X
b1010 [
b1010 g
b101000110110001100010011 9
b101000110110001100010011 U
b101000110110001100010011 Z
b101000 /
b101000 _
b101000 .
b101000 n
b101110 -
b101110 K
b100100 0
b100100 M
b100100 Y
b100100 `
b100100 l
1!
#360
0!
#365
b0 (
b0 R
b0 c
b0 ?
b0 E
b0 Q
b1001 A
b1001 C
b1001 J
b10 +
b10 a
14
b0 &
b0 B
b0 ]
b0 h
b101100 /
b101100 _
b10 V
b11 T
b10 G
b1000 d
b0 b
b11 N
b10 <
b10 j
b10 p
18
b11 1
b0 :
b0 L
b0 X
b0 [
b0 g
b1000001111100 '
b1000001111100 D
b1000001111100 f
b10010010000000011 9
b10010010000000011 U
b10010010000000011 Z
b101100 .
b101100 n
b101000 -
b101000 K
b101000 0
b101000 M
b101000 Y
b101000 `
b101000 l
1!
#370
0!
#375
b1000010000000 (
b1000010000000 R
b1000010000000 c
b1000010000000 ?
b1000010000000 E
b1000010000000 Q
b1 A
b1 C
b1 J
04
b100 &
b100 B
b100 ]
b1000 h
b110000 /
b110000 _
b0 V
b10011 T
b0 G
b10 d
b100 b
b10011 N
b0 <
b0 j
b0 p
08
b10011 1
b100 :
b100 L
b100 X
b100 [
b100 g
b10000010000000100010011 9
b10000010000000100010011 U
b10000010000000100010011 Z
b110000 .
b110000 n
b110000 -
b110000 K
b101100 0
b101100 M
b101100 Y
b101100 `
b101100 l
1!
#380
0!
#385
b1011 A
b1011 C
b1011 J
b1000010000000 (
b1000010000000 R
b1000010000000 c
b0 +
b0 a
0)
0>
b11 @
b11 I
b11 O
b0 &
b0 B
b0 ]
b0 h
b1000010000000 ?
b1000010000000 E
b1000010000000 Q
b110100 /
b110100 _
b0 T
b0 d
b0 b
b0 N
b0 1
b0 :
b0 L
b0 X
b0 [
b0 g
b0 '
b0 D
b0 f
b0 9
b0 U
b0 Z
b110100 .
b110100 n
b110000 -
b110000 K
b110000 0
b110000 M
b110000 Y
b110000 `
b110000 l
1!
#390
0!
#395
b0 (
b0 R
b0 c
b0 ?
b0 E
b0 Q
bx &
bx B
bx ]
bx %
bx q
bx '
bx D
bx f
b0 A
b0 C
b0 J
bx *
bx \
bx e
bx o
bx +
bx a
b111000 /
b111000 _
bx V
bx T
bx G
xH
bx d
bx b
bx N
x;
bx <
bx j
bx p
x7
x8
bx 1
bx 9
bx U
bx Z
b111000 .
b111000 n
b110100 -
b110100 K
b110100 0
b110100 M
b110100 Y
b110100 `
b110100 l
1!
#400
0!
#405
b111100 /
b111100 _
b111100 .
b111100 n
b111000 -
b111000 K
b111000 0
b111000 M
b111000 Y
b111000 `
b111000 l
1!
#410
0!
#415
b1000000 /
b1000000 _
b1000000 .
b1000000 n
b111100 -
b111100 K
b111100 0
b111100 M
b111100 Y
b111100 `
b111100 l
1!
#420
0!
#425
b1000100 /
b1000100 _
b1000100 .
b1000100 n
b1000000 -
b1000000 K
b1000000 0
b1000000 M
b1000000 Y
b1000000 `
b1000000 l
1!
#430
0!
