q3/simulation/output.vcd
$date
	Tue Mar 25 23:14:36 2025
$end
$version
	Icarus Verilog
$end
$timescale
	1ns
$end
$scope module tb_riscv_sc $end
$var reg 1 ! clk $end
$var reg 1 " start $end
$scope module riscv_DUT $end
$var wire 1 ! clk $end
$var wire 1 # pcsel $end
$var wire 1 " start $end
$var wire 1 $ zero $end
$var wire 32 % storebus [31:0] $end
$var wire 32 & srcB [31:0] $end
$var wire 32 ' srcA [31:0] $end
$var wire 32 ( regWriteData [31:0] $end
$var wire 1 ) regWrite $end
$var wire 32 * readData2 [31:0] $end
$var wire 5 + readData1 [4:0] $end
$var wire 32 , readData [31:0] $end
$var wire 32 - pctarget [31:0] $end
$var wire 32 . pcplus4 [31:0] $end
$var wire 32 / pcnext [31:0] $end
$var wire 32 0 pc [31:0] $end
$var wire 7 1 opcode [6:0] $end
$var wire 2 2 memtoReg [1:0] $end
$var wire 1 3 memWrite $end
$var wire 1 4 memRead $end
$var wire 32 5 loadbus [31:0] $end
$var wire 1 6 jalr $end
$var wire 1 7 isstore $end
$var wire 1 8 isload $end
$var wire 32 9 instr [31:0] $end
$var wire 32 : imm [31:0] $end
$var wire 1 ; funct7 $end
$var wire 3 < funct3 [2:0] $end
$var wire 1 = branch $end
$var wire 1 > ALUSrc $end
$var wire 32 ? ALUOut [31:0] $end
$var wire 2 @ ALUOp [1:0] $end
$var wire 4 A ALUCtl [3:0] $end
$scope module m_ALU $end
$var wire 32 B B [31:0] $end
$var wire 4 C ALUCtl [3:0] $end
$var wire 32 D A [31:0] $end
$var reg 32 E ALUOut [31:0] $end
$var reg 1 F carry $end
$var reg 1 $ zero $end
$upscope $end
$scope module m_ALUCtrl $end
$var wire 3 G funct3 [2:0] $end
$var wire 1 H funct7 $end
$var wire 2 I ALUOp [1:0] $end
$var reg 4 J ALUCtl [3:0] $end
$upscope $end
$scope module m_Adder_2 $end
$var wire 32 K sum [31:0] $end
$var wire 32 L b [31:0] $end
$var wire 32 M a [31:0] $end
$upscope $end
$scope module m_Control $end
$var wire 7 N opcode [6:0] $end
$var reg 2 O ALUOp [1:0] $end
$var reg 1 > ALUSrc $end
$var reg 1 = branch $end
$var reg 1 6 jalr $end
$var reg 1 4 memRead $end
$var reg 1 3 memWrite $end
$var reg 2 P memtoReg [1:0] $end
$var reg 1 ) regWrite $end
$upscope $end
$scope module m_DataMemory $end
$var wire 32 Q address [31:0] $end
$var wire 1 ! clk $end
$var wire 1 4 memRead $end
$var wire 1 3 memWrite $end
$var wire 1 " rst $end
$var wire 32 R writeData [31:0] $end
$var reg 32 S readData [31:0] $end
$upscope $end
$scope module m_ImmGen $end
$var wire 7 T opcode [6:0] $end
$var wire 32 U inst [31:0] $end
$var wire 3 V funct3 [2:0] $end
$var parameter 32 W Width $end
$var reg 32 X imm [31:0] $end
$upscope $end
$scope module m_InstMem $end
$var wire 32 Y readAddr [31:0] $end
$var wire 32 Z inst [31:0] $end
$upscope $end
$scope module m_Mux_ALU $end
$var wire 32 [ s1 [31:0] $end
$var wire 1 > sel $end
$var wire 32 \ s0 [31:0] $end
$var wire 32 ] out [31:0] $end
$var parameter 32 ^ size $end
$upscope $end
$scope module m_PC $end
$var wire 1 ! clk $end
$var wire 32 _ pc_i [31:0] $end
$var wire 1 " rst $end
$var reg 32 ` pc_o [31:0] $end
$upscope $end
$scope module m_Register $end
$var wire 1 ! clk $end
$var wire 5 a readReg1 [4:0] $end
$var wire 5 b readReg2 [4:0] $end
$var wire 1 ) regWrite $end
$var wire 1 " rst $end
$var wire 32 c writeData [31:0] $end
$var wire 5 d writeReg [4:0] $end
$var wire 32 e readData2 [31:0] $end
$var wire 32 f readData1 [31:0] $end
$upscope $end
$scope module m_ShiftLeftOne $end
$var wire 32 g i [31:0] $end
$var wire 32 h o [31:0] $end
$upscope $end
$scope module m_load $end
$var wire 32 i datatowrite [31:0] $end
$var wire 3 j funct3 [2:0] $end
$var wire 1 8 trueop $end
$var reg 32 k part [31:0] $end
$upscope $end
$scope module m_pc_plus_4 $end
$var wire 32 l a [31:0] $end
$var wire 32 m b [31:0] $end
$var wire 32 n sum [31:0] $end
$upscope $end
$scope module m_store $end
$var wire 32 o datatowrite [31:0] $end
$var wire 3 p funct3 [2:0] $end
$var wire 1 7 trueop $end
$var reg 32 q part [31:0] $end
$upscope $end
$upscope $end
$upscope $end
$enddefinitions $end
$comment Show the parameter values. $end
$dumpall
b100000 ^
b100000 W
$end
#0
$dumpvars
bx q
b0 p
bx o
b100 n
b100 m
b0 l
b0 k
b0 j
b0 i
b1110 h
b111 g
bx f
bx e
b11 d
bx c
b111 b
b11 a
b0 `
b100 _
b111 ]
bx \
b111 [
b11100011000000110010011 Z
b0 Y
b111 X
b0 V
b11100011000000110010011 U
b10011 T
b0 S
bx R
bx Q
b0 P
b10 O
b10011 N
b0 M
b111 L
b111 K
b1 J
b10 I
0H
b0 G
xF
bx E
bx D
b1 C
b111 B
b1 A
b10 @
bx ?
1>
0=
b0 <
0;
b111 :
b11100011000000110010011 9
08
07
06
b0 5
04
03
b0 2
b10011 1
b0 0
b100 /
b100 .
b111 -
b0 ,
b11 +
bx *
1)
bx (
bx '
b111 &
bx %
x$
0#
0"
0!
$end
#5
b111 (
b111 R
b111 c
b0 %
b0 q
0F
b111 ?
b111 E
b111 Q
b0 *
b0 \
b0 e
b0 o
b0 '
b0 D
b0 f
1!
#10
0!
1"
#15
b101 (
b101 R
b101 c
b111 +
b111 a
b101 &
b101 B
b101 ]
b1010 h
b101 ?
b101 E
b101 Q
b1000 /
b1000 _
b111 d
b101 b
b101 :
b101 L
b101 X
b101 [
b101 g
b0 '
b0 D
b0 f
b10100111000001110010011 9
b10100111000001110010011 U
b10100111000001110010011 Z
b1000 .
b1000 n
b1001 -
b1001 K
b100 0
b100 M
b100 Y
b100 `
b100 l
1!
#20
0!
#25
x#
b1100 (
b1100 R
b1100 c
b0 +
b0 a
0>
b10 2
b10 P
1=
b0 &
b0 B
b0 ]
b1000 h
b0 ?
b0 E
b0 Q
b1100 /
b1100 _
b1101111 T
b101 d
b100 b
b1101111 N
b1101111 1
b100 :
b100 L
b100 X
b100 [
b100 g
b0 '
b0 D
b0 f
b10000000000001011101111 9
b10000000000001011101111 U
b10000000000001011101111 Z
b1100 .
b1100 n
b1100 -
b1100 K
b1000 0
b1000 M
b1000 Y
b1000 `
b1000 l
1!
#30
0!
#35
b101 ?
b101 E
b101 Q
b1100 %
b1100 q
b101 &
b101 B
b101 ]
0#
b101 (
b101 R
b101 c
b1100 *
b1100 \
b1100 e
b1100 o
b110 +
b110 a
1>
b0 2
b0 P
0=
b1010 h
b10011 T
b110 d
b101 b
b10011 N
b10011 1
b101 :
b101 L
b101 X
b101 [
b101 g
b10100110000001100010011 9
b10100110000001100010011 U
b10100110000001100010011 Z
b10000 /
b10000 _
b10000 .
b10000 n
b10001 -
b10001 K
b1100 0
b1100 M
b1100 Y
b1100 `
b1100 l
1!
#40
0!
#45
b0 %
b0 q
b1000000000100 (
b1000000000100 R
b1000000000100 c
b0 *
b0 \
b0 e
b0 o
b111 +
b111 a
b111111111111 &
b111111111111 B
b111111111111 ]
b1111111111110 h
b1000000000100 ?
b1000000000100 E
b1000000000100 Q
b10100 /
b10100 _
1H
b111 d
b11111 b
1;
b111111111111 :
b111111111111 L
b111111111111 X
b111111111111 [
b111111111111 g
b101 '
b101 D
b101 f
b11111111111100111000001110010011 9
b11111111111100111000001110010011 U
b11111111111100111000001110010011 Z
b10100 .
b10100 n
b1000000001111 -
b1000000001111 K
b10000 0
b10000 M
b10000 Y
b10000 `
b10000 l
1!
#50
0!
#55
0$
b1000000000100 (
b1000000000100 R
b1000000000100 c
b11 A
b11 C
b11 J
0)
0>
b11 @
b11 I
b11 O
1=
b0 &
b0 B
b0 ]
b11111111111111111111111111110000 h
b1000000000100 ?
b1000000000100 E
b1000000000100 Q
b11000 /
b11000 _
b1 V
b1100011 T
b1 G
b11001 d
b0 b
b1100011 N
b1 <
b1 j
b1 p
b1100011 1
b11111111111111111111111111111000 :
b11111111111111111111111111111000 L
b11111111111111111111111111111000 X
b11111111111111111111111111111000 [
b11111111111111111111111111111000 g
b1000000000100 '
b1000000000100 D
b1000000000100 f
b11111110000000111001110011100011 9
b11111110000000111001110011100011 U
b11111110000000111001110011100011 Z
b11000 .
b11000 n
b1100 -
b1100 K
b10100 0
b10100 M
b10100 Y
b10100 `
b10100 l
1!
#60
0!
#65
b0 (
b0 R
b0 c
b0 ?
b0 E
b0 Q
b0 '
b0 D
b0 f
b1 A
b1 C
b1 J
b1101 +
b1101 a
1)
1>
b10 @
b10 I
b10 O
0=
b0 h
b11100 /
b11100 _
b0 V
b10011 T
b0 G
0H
b1101 d
b10011 N
0;
b0 <
b0 j
b0 p
b10011 1
b0 :
b0 L
b0 X
b0 [
b0 g
b1101000011010010011 9
b1101000011010010011 U
b1101000011010010011 Z
b11100 .
b11100 n
b11000 -
b11000 K
b11000 0
b11000 M
b11000 Y
b11000 `
b11000 l
1!
#70
0!
#75
1$
b1011 A
b1011 C
b1011 J
b0 +
b0 a
0)
0>
b11 @
b11 I
b11 O
b100000 /
b100000 _
b0 T
b0 d
b0 N
b0 1
b0 9
b0 U
b0 Z
b100000 .
b100000 n
b11100 -
b11100 K
b11100 0
b11100 M
b11100 Y
b11100 `
b11100 l
1!
#80
0!
#85
bx &
bx B
bx ]
bx %
bx q
bx '
bx D
bx f
b0 A
b0 C
b0 J
bx *
bx \
bx e
bx o
bx +
bx a
b100100 /
b100100 _
bx V
bx T
bx G
xH
bx d
bx b
bx N
x;
bx <
bx j
bx p
x7
x8
bx 1
bx 9
bx U
bx Z
b100100 .
b100100 n
b100000 -
b100000 K
b100000 0
b100000 M
b100000 Y
b100000 `
b100000 l
1!
#90
0!
#95
b101000 /
b101000 _
b101000 .
b101000 n
b100100 -
b100100 K
b100100 0
b100100 M
b100100 Y
b100100 `
b100100 l
1!
#100
0!
#105
b101100 /
b101100 _
b101100 .
b101100 n
b101000 -
b101000 K
b101000 0
b101000 M
b101000 Y
b101000 `
b101000 l
1!
#110
0!
#115
b110000 /
b110000 _
b110000 .
b110000 n
b101100 -
b101100 K
b101100 0
b101100 M
b101100 Y
b101100 `
b101100 l
1!
#120
0!
#125
b110100 /
b110100 _
b110100 .
b110100 n
b110000 -
b110000 K
b110000 0
b110000 M
b110000 Y
b110000 `
b110000 l
1!
#130
0!
#135
b111000 /
b111000 _
b111000 .
b111000 n
b110100 -
b110100 K
b110100 0
b110100 M
b110100 Y
b110100 `
b110100 l
1!
#140
0!
#145
b111100 /
b111100 _
b111100 .
b111100 n
b111000 -
b111000 K
b111000 0
b111000 M
b111000 Y
b111000 `
b111000 l
1!
#150
0!
#155
b1000000 /
b1000000 _
b1000000 .
b1000000 n
b111100 -
b111100 K
b111100 0
b111100 M
b111100 Y
b111100 `
b111100 l
1!
#160
0!
#165
b1000100 /
b1000100 _
b1000100 .
b1000100 n
b1000000 -
b1000000 K
b1000000 0
b1000000 M
b1000000 Y
b1000000 `
b1000000 l
1!
#170
0!
#175
b1001000 /
b1001000 _
b1001000 .
b1001000 n
b1000100 -
b1000100 K
b1000100 0
b1000100 M
b1000100 Y
b1000100 `
b1000100 l
1!
#180
0!
#185
b1001100 /
b1001100 _
b1001100 .
b1001100 n
b1001000 -
b1001000 K
b1001000 0
b1001000 M
b1001000 Y
b1001000 `
b1001000 l
1!
#190
0!
#195
b1010000 /
b1010000 _
b1010000 .
b1010000 n
b1001100 -
b1001100 K
b1001100 0
b1001100 M
b1001100 Y
b1001100 `
b1001100 l
1!
#200
0!
#205
b1010100 /
b1010100 _
b1010100 .
b1010100 n
b1010000 -
b1010000 K
b1010000 0
b1010000 M
b1010000 Y
b1010000 `
b1010000 l
1!
#210
0!
#215
b1011000 /
b1011000 _
b1011000 .
b1011000 n
b1010100 -
b1010100 K
b1010100 0
b1010100 M
b1010100 Y
b1010100 `
b1010100 l
1!
#220
0!
#225
b1011100 /
b1011100 _
b1011100 .
b1011100 n
b1011000 -
b1011000 K
b1011000 0
b1011000 M
b1011000 Y
b1011000 `
b1011000 l
1!
#230
0!
#235
b1100000 /
b1100000 _
b1100000 .
b1100000 n
b1011100 -
b1011100 K
b1011100 0
b1011100 M
b1011100 Y
b1011100 `
b1011100 l
1!
#240
0!
#245
b1100100 /
b1100100 _
b1100100 .
b1100100 n
b1100000 -
b1100000 K
b1100000 0
b1100000 M
b1100000 Y
b1100000 `
b1100000 l
1!
#250
0!
#255
b1101000 /
b1101000 _
b1101000 .
b1101000 n
b1100100 -
b1100100 K
b1100100 0
b1100100 M
b1100100 Y
b1100100 `
b1100100 l
1!
#260
0!
#265
b1101100 /
b1101100 _
b1101100 .
b1101100 n
b1101000 -
b1101000 K
b1101000 0
b1101000 M
b1101000 Y
b1101000 `
b1101000 l
1!
#270
0!
#275
b1110000 /
b1110000 _
b1110000 .
b1110000 n
b1101100 -
b1101100 K
b1101100 0
b1101100 M
b1101100 Y
b1101100 `
b1101100 l
1!
#280
0!
#285
b1110100 /
b1110100 _
b1110100 .
b1110100 n
b1110000 -
b1110000 K
b1110000 0
b1110000 M
b1110000 Y
b1110000 `
b1110000 l
1!
#290
0!
#295
b1111000 /
b1111000 _
b1111000 .
b1111000 n
b1110100 -
b1110100 K
b1110100 0
b1110100 M
b1110100 Y
b1110100 `
b1110100 l
1!
#300
0!
#305
b1111100 /
b1111100 _
b1111100 .
b1111100 n
b1111000 -
b1111000 K
b1111000 0
b1111000 M
b1111000 Y
b1111000 `
b1111000 l
1!
#310
0!
#315
b10000000 /
b10000000 _
b10000000 .
b10000000 n
b1111100 -
b1111100 K
b1111100 0
b1111100 M
b1111100 Y
b1111100 `
b1111100 l
1!
#320
0!
#325
b0 &
b0 B
b0 ]
b0 %
b0 q
b0 '
b0 D
b0 f
b1011 A
b1011 C
b1011 J
b0 *
b0 \
b0 e
b0 o
b0 +
b0 a
b10000100 /
b10000100 _
b0 V
b0 T
b0 G
0H
b0 d
b0 b
b0 N
0;
b0 <
b0 j
b0 p
07
08
b0 1
b0 9
b0 U
b0 Z
b10000100 .
b10000100 n
b10000000 -
b10000000 K
b10000000 0
b10000000 M
b10000000 Y
b10000000 `
b10000000 l
1!
#330
0!
#335
b10001000 /
b10001000 _
b10001000 .
b10001000 n
b10000100 -
b10000100 K
b10000100 0
b10000100 M
b10000100 Y
b10000100 `
b10000100 l
1!
#340
0!
#345
b10001100 /
b10001100 _
b10001100 .
b10001100 n
b10001000 -
b10001000 K
b10001000 0
b10001000 M
b10001000 Y
b10001000 `
b10001000 l
1!
#350
0!
#355
b10010000 /
b10010000 _
b10010000 .
b10010000 n
b10001100 -
b10001100 K
b10001100 0
b10001100 M
b10001100 Y
b10001100 `
b10001100 l
1!
#360
0!
#365
b10010100 /
b10010100 _
b10010100 .
b10010100 n
b10010000 -
b10010000 K
b10010000 0
b10010000 M
b10010000 Y
b10010000 `
b10010000 l
1!
#370
0!
#375
b10011000 /
b10011000 _
b10011000 .
b10011000 n
b10010100 -
b10010100 K
b10010100 0
b10010100 M
b10010100 Y
b10010100 `
b10010100 l
1!
#380
0!
#385
b10011100 /
b10011100 _
b10011100 .
b10011100 n
b10011000 -
b10011000 K
b10011000 0
b10011000 M
b10011000 Y
b10011000 `
b10011000 l
1!
#390
0!
#395
b10100000 /
b10100000 _
b10100000 .
b10100000 n
b10011100 -
b10011100 K
b10011100 0
b10011100 M
b10011100 Y
b10011100 `
b10011100 l
1!
#400
0!
#405
b10100100 /
b10100100 _
b10100100 .
b10100100 n
b10100000 -
b10100000 K
b10100000 0
b10100000 M
b10100000 Y
b10100000 `
b10100000 l
1!
#410
0!
#415
b10101000 /
b10101000 _
b10101000 .
b10101000 n
b10100100 -
b10100100 K
b10100100 0
b10100100 M
b10100100 Y
b10100100 `
b10100100 l
1!
#420
0!
#425
b10101100 /
b10101100 _
b10101100 .
b10101100 n
b10101000 -
b10101000 K
b10101000 0
b10101000 M
b10101000 Y
b10101000 `
b10101000 l
1!
#430
0!
#435
b10110000 /
b10110000 _
b10110000 .
b10110000 n
b10101100 -
b10101100 K
b10101100 0
b10101100 M
b10101100 Y
b10101100 `
b10101100 l
1!
#440
0!
#445
b10110100 /
b10110100 _
b10110100 .
b10110100 n
b10110000 -
b10110000 K
b10110000 0
b10110000 M
b10110000 Y
b10110000 `
b10110000 l
1!
#450
0!
#455
b10111000 /
b10111000 _
b10111000 .
b10111000 n
b10110100 -
b10110100 K
b10110100 0
b10110100 M
b10110100 Y
b10110100 `
b10110100 l
1!
#460
0!
#465
b10111100 /
b10111100 _
b10111100 .
b10111100 n
b10111000 -
b10111000 K
b10111000 0
b10111000 M
b10111000 Y
b10111000 `
b10111000 l
1!
#470
0!
#475
b11000000 /
b11000000 _
b11000000 .
b11000000 n
b10111100 -
b10111100 K
b10111100 0
b10111100 M
b10111100 Y
b10111100 `
b10111100 l
1!
#480
0!
#485
b11000100 /
b11000100 _
b11000100 .
b11000100 n
b11000000 -
b11000000 K
b11000000 0
b11000000 M
b11000000 Y
b11000000 `
b11000000 l
1!
#490
0!
#495
b11001000 /
b11001000 _
b11001000 .
b11001000 n
b11000100 -
b11000100 K
b11000100 0
b11000100 M
b11000100 Y
b11000100 `
b11000100 l
1!
#500
0!
#505
b11001100 /
b11001100 _
b11001100 .
b11001100 n
b11001000 -
b11001000 K
b11001000 0
b11001000 M
b11001000 Y
b11001000 `
b11001000 l
1!
#510
0!
#515
b11010000 /
b11010000 _
b11010000 .
b11010000 n
b11001100 -
b11001100 K
b11001100 0
b11001100 M
b11001100 Y
b11001100 `
b11001100 l
1!
#520
0!
#525
b11010100 /
b11010100 _
b11010100 .
b11010100 n
b11010000 -
b11010000 K
b11010000 0
b11010000 M
b11010000 Y
b11010000 `
b11010000 l
1!
#530
0!
#535
b11011000 /
b11011000 _
b11011000 .
b11011000 n
b11010100 -
b11010100 K
b11010100 0
b11010100 M
b11010100 Y
b11010100 `
b11010100 l
1!
#540
0!
#545
b11011100 /
b11011100 _
b11011100 .
b11011100 n
b11011000 -
b11011000 K
b11011000 0
b11011000 M
b11011000 Y
b11011000 `
b11011000 l
1!
#550
0!
#555
b11100000 /
b11100000 _
b11100000 .
b11100000 n
b11011100 -
b11011100 K
b11011100 0
b11011100 M
b11011100 Y
b11011100 `
b11011100 l
1!
#560
0!
#565
b11100100 /
b11100100 _
b11100100 .
b11100100 n
b11100000 -
b11100000 K
b11100000 0
b11100000 M
b11100000 Y
b11100000 `
b11100000 l
1!
#570
0!
#575
b11101000 /
b11101000 _
b11101000 .
b11101000 n
b11100100 -
b11100100 K
b11100100 0
b11100100 M
b11100100 Y
b11100100 `
b11100100 l
1!
#580
0!
#585
b11101100 /
b11101100 _
b11101100 .
b11101100 n
b11101000 -
b11101000 K
b11101000 0
b11101000 M
b11101000 Y
b11101000 `
b11101000 l
1!
#590
0!
#595
b11110000 /
b11110000 _
b11110000 .
b11110000 n
b11101100 -
b11101100 K
b11101100 0
b11101100 M
b11101100 Y
b11101100 `
b11101100 l
1!
#600
0!
#605
b11110100 /
b11110100 _
b11110100 .
b11110100 n
b11110000 -
b11110000 K
b11110000 0
b11110000 M
b11110000 Y
b11110000 `
b11110000 l
1!
#610
0!
#615
b11111000 /
b11111000 _
b11111000 .
b11111000 n
b11110100 -
b11110100 K
b11110100 0
b11110100 M
b11110100 Y
b11110100 `
b11110100 l
1!
#620
0!
#625
b11111100 /
b11111100 _
b11111100 .
b11111100 n
b11111000 -
b11111000 K
b11111000 0
b11111000 M
b11111000 Y
b11111000 `
b11111000 l
1!
#630
0!
#635
b100000000 /
b100000000 _
b100000000 .
b100000000 n
b11111100 -
b11111100 K
b11111100 0
b11111100 M
b11111100 Y
b11111100 `
b11111100 l
1!
#640
0!
#645
b100000100 /
b100000100 _
b100000100 .
b100000100 n
b100000000 -
b100000000 K
b100000000 0
b100000000 M
b100000000 Y
b100000000 `
b100000000 l
1!
#650
0!
#655
b100001000 /
b100001000 _
b100001000 .
b100001000 n
b100000100 -
b100000100 K
b100000100 0
b100000100 M
b100000100 Y
b100000100 `
b100000100 l
1!
#660
0!
#665
b100001100 /
b100001100 _
b100001100 .
b100001100 n
b100001000 -
b100001000 K
b100001000 0
b100001000 M
b100001000 Y
b100001000 `
b100001000 l
1!
#670
0!
#675
b100010000 /
b100010000 _
b100010000 .
b100010000 n
b100001100 -
b100001100 K
b100001100 0
b100001100 M
b100001100 Y
b100001100 `
b100001100 l
1!
#680
0!
#685
b100010100 /
b100010100 _
b100010100 .
b100010100 n
b100010000 -
b100010000 K
b100010000 0
b100010000 M
b100010000 Y
b100010000 `
b100010000 l
1!
#690
0!
#695
b100011000 /
b100011000 _
b100011000 .
b100011000 n
b100010100 -
b100010100 K
b100010100 0
b100010100 M
b100010100 Y
b100010100 `
b100010100 l
1!
#700
0!
#705
b100011100 /
b100011100 _
b100011100 .
b100011100 n
b100011000 -
b100011000 K
b100011000 0
b100011000 M
b100011000 Y
b100011000 `
b100011000 l
1!
#710
0!
#715
b100100000 /
b100100000 _
b100100000 .
b100100000 n
b100011100 -
b100011100 K
b100011100 0
b100011100 M
b100011100 Y
b100011100 `
b100011100 l
1!
#720
0!
#725
b100100100 /
b100100100 _
b100100100 .
b100100100 n
b100100000 -
b100100000 K
b100100000 0
b100100000 M
b100100000 Y
b100100000 `
b100100000 l
1!
#730
0!
#735
b100101000 /
b100101000 _
b100101000 .
b100101000 n
b100100100 -
b100100100 K
b100100100 0
b100100100 M
b100100100 Y
b100100100 `
b100100100 l
1!
#740
0!
#745
b100101100 /
b100101100 _
b100101100 .
b100101100 n
b100101000 -
b100101000 K
b100101000 0
b100101000 M
b100101000 Y
b100101000 `
b100101000 l
1!
#750
0!
#755
b100110000 /
b100110000 _
b100110000 .
b100110000 n
b100101100 -
b100101100 K
b100101100 0
b100101100 M
b100101100 Y
b100101100 `
b100101100 l
1!
#760
0!
#765
b100110100 /
b100110100 _
b100110100 .
b100110100 n
b100110000 -
b100110000 K
b100110000 0
b100110000 M
b100110000 Y
b100110000 `
b100110000 l
1!
#770
0!
#775
b100111000 /
b100111000 _
b100111000 .
b100111000 n
b100110100 -
b100110100 K
b100110100 0
b100110100 M
b100110100 Y
b100110100 `
b100110100 l
1!
#780
0!
#785
b100111100 /
b100111100 _
b100111100 .
b100111100 n
b100111000 -
b100111000 K
b100111000 0
b100111000 M
b100111000 Y
b100111000 `
b100111000 l
1!
#790
0!
#795
b101000000 /
b101000000 _
b101000000 .
b101000000 n
b100111100 -
b100111100 K
b100111100 0
b100111100 M
b100111100 Y
b100111100 `
b100111100 l
1!
#800
0!
#805
b101000100 /
b101000100 _
b101000100 .
b101000100 n
b101000000 -
b101000000 K
b101000000 0
b101000000 M
b101000000 Y
b101000000 `
b101000000 l
1!
#810
0!
#815
b101001000 /
b101001000 _
b101001000 .
b101001000 n
b101000100 -
b101000100 K
b101000100 0
b101000100 M
b101000100 Y
b101000100 `
b101000100 l
1!
#820
0!
#825
b101001100 /
b101001100 _
b101001100 .
b101001100 n
b101001000 -
b101001000 K
b101001000 0
b101001000 M
b101001000 Y
b101001000 `
b101001000 l
1!
#830
0!
#835
b101010000 /
b101010000 _
b101010000 .
b101010000 n
b101001100 -
b101001100 K
b101001100 0
b101001100 M
b101001100 Y
b101001100 `
b101001100 l
1!
#840
0!
#845
b101010100 /
b101010100 _
b101010100 .
b101010100 n
b101010000 -
b101010000 K
b101010000 0
b101010000 M
b101010000 Y
b101010000 `
b101010000 l
1!
#850
0!
#855
b101011000 /
b101011000 _
b101011000 .
b101011000 n
b101010100 -
b101010100 K
b101010100 0
b101010100 M
b101010100 Y
b101010100 `
b101010100 l
1!
#860
0!
#865
b101011100 /
b101011100 _
b101011100 .
b101011100 n
b101011000 -
b101011000 K
b101011000 0
b101011000 M
b101011000 Y
b101011000 `
b101011000 l
1!
#870
0!
#875
b101100000 /
b101100000 _
b101100000 .
b101100000 n
b101011100 -
b101011100 K
b101011100 0
b101011100 M
b101011100 Y
b101011100 `
b101011100 l
1!
#880
0!
#885
b101100100 /
b101100100 _
b101100100 .
b101100100 n
b101100000 -
b101100000 K
b101100000 0
b101100000 M
b101100000 Y
b101100000 `
b101100000 l
1!
#890
0!
#895
b101101000 /
b101101000 _
b101101000 .
b101101000 n
b101100100 -
b101100100 K
b101100100 0
b101100100 M
b101100100 Y
b101100100 `
b101100100 l
1!
#900
0!
#905
b101101100 /
b101101100 _
b101101100 .
b101101100 n
b101101000 -
b101101000 K
b101101000 0
b101101000 M
b101101000 Y
b101101000 `
b101101000 l
1!
#910
0!
#915
b101110000 /
b101110000 _
b101110000 .
b101110000 n
b101101100 -
b101101100 K
b101101100 0
b101101100 M
b101101100 Y
b101101100 `
b101101100 l
1!
#920
0!
#925
b101110100 /
b101110100 _
b101110100 .
b101110100 n
b101110000 -
b101110000 K
b101110000 0
b101110000 M
b101110000 Y
b101110000 `
b101110000 l
1!
#930
0!
#935
b101111000 /
b101111000 _
b101111000 .
b101111000 n
b101110100 -
b101110100 K
b101110100 0
b101110100 M
b101110100 Y
b101110100 `
b101110100 l
1!
#940
0!
#945
b101111100 /
b101111100 _
b101111100 .
b101111100 n
b101111000 -
b101111000 K
b101111000 0
b101111000 M
b101111000 Y
b101111000 `
b101111000 l
1!
#950
0!
#955
b110000000 /
b110000000 _
b110000000 .
b110000000 n
b101111100 -
b101111100 K
b101111100 0
b101111100 M
b101111100 Y
b101111100 `
b101111100 l
1!
#960
0!
#965
b110000100 /
b110000100 _
b110000100 .
b110000100 n
b110000000 -
b110000000 K
b110000000 0
b110000000 M
b110000000 Y
b110000000 `
b110000000 l
1!
#970
0!
#975
b110001000 /
b110001000 _
b110001000 .
b110001000 n
b110000100 -
b110000100 K
b110000100 0
b110000100 M
b110000100 Y
b110000100 `
b110000100 l
1!
#980
0!
#985
b110001100 /
b110001100 _
b110001100 .
b110001100 n
b110001000 -
b110001000 K
b110001000 0
b110001000 M
b110001000 Y
b110001000 `
b110001000 l
1!
#990
0!
#995
b110010000 /
b110010000 _
b110010000 .
b110010000 n
b110001100 -
b110001100 K
b110001100 0
b110001100 M
b110001100 Y
b110001100 `
b110001100 l
1!
#1000
0!
#1005
b110010100 /
b110010100 _
b110010100 .
b110010100 n
b110010000 -
b110010000 K
b110010000 0
b110010000 M
b110010000 Y
b110010000 `
b110010000 l
1!
#1010
0!
#1015
b110011000 /
b110011000 _
b110011000 .
b110011000 n
b110010100 -
b110010100 K
b110010100 0
b110010100 M
b110010100 Y
b110010100 `
b110010100 l
1!
#1020
0!
#1025
b110011100 /
b110011100 _
b110011100 .
b110011100 n
b110011000 -
b110011000 K
b110011000 0
b110011000 M
b110011000 Y
b110011000 `
b110011000 l
1!
#1030
0!
#1035
b110100000 /
b110100000 _
b110100000 .
b110100000 n
b110011100 -
b110011100 K
b110011100 0
b110011100 M
b110011100 Y
b110011100 `
b110011100 l
1!
#1040
0!
#1045
b110100100 /
b110100100 _
b110100100 .
b110100100 n
b110100000 -
b110100000 K
b110100000 0
b110100000 M
b110100000 Y
b110100000 `
b110100000 l
1!
#1050
0!
#1055
b110101000 /
b110101000 _
b110101000 .
b110101000 n
b110100100 -
b110100100 K
b110100100 0
b110100100 M
b110100100 Y
b110100100 `
b110100100 l
1!
#1060
0!
#1065
b110101100 /
b110101100 _
b110101100 .
b110101100 n
b110101000 -
b110101000 K
b110101000 0
b110101000 M
b110101000 Y
b110101000 `
b110101000 l
1!
#1070
0!
#1075
b110110000 /
b110110000 _
b110110000 .
b110110000 n
b110101100 -
b110101100 K
b110101100 0
b110101100 M
b110101100 Y
b110101100 `
b110101100 l
1!
#1080
0!
#1085
b110110100 /
b110110100 _
b110110100 .
b110110100 n
b110110000 -
b110110000 K
b110110000 0
b110110000 M
b110110000 Y
b110110000 `
b110110000 l
1!
#1090
0!
#1095
b110111000 /
b110111000 _
b110111000 .
b110111000 n
b110110100 -
b110110100 K
b110110100 0
b110110100 M
b110110100 Y
b110110100 `
b110110100 l
1!
#1100
0!
#1105
b110111100 /
b110111100 _
b110111100 .
b110111100 n
b110111000 -
b110111000 K
b110111000 0
b110111000 M
b110111000 Y
b110111000 `
b110111000 l
1!
#1110
0!
#1115
b111000000 /
b111000000 _
b111000000 .
b111000000 n
b110111100 -
b110111100 K
b110111100 0
b110111100 M
b110111100 Y
b110111100 `
b110111100 l
1!
#1120
0!
#1125
b111000100 /
b111000100 _
b111000100 .
b111000100 n
b111000000 -
b111000000 K
b111000000 0
b111000000 M
b111000000 Y
b111000000 `
b111000000 l
1!
#1130
0!
#1135
b111001000 /
b111001000 _
b111001000 .
b111001000 n
b111000100 -
b111000100 K
b111000100 0
b111000100 M
b111000100 Y
b111000100 `
b111000100 l
1!
#1140
0!
#1145
b111001100 /
b111001100 _
b111001100 .
b111001100 n
b111001000 -
b111001000 K
b111001000 0
b111001000 M
b111001000 Y
b111001000 `
b111001000 l
1!
#1150
0!
#1155
b111010000 /
b111010000 _
b111010000 .
b111010000 n
b111001100 -
b111001100 K
b111001100 0
b111001100 M
b111001100 Y
b111001100 `
b111001100 l
1!
#1160
0!
#1165
b111010100 /
b111010100 _
b111010100 .
b111010100 n
b111010000 -
b111010000 K
b111010000 0
b111010000 M
b111010000 Y
b111010000 `
b111010000 l
1!
#1170
0!
#1175
b111011000 /
b111011000 _
b111011000 .
b111011000 n
b111010100 -
b111010100 K
b111010100 0
b111010100 M
b111010100 Y
b111010100 `
b111010100 l
1!
#1180
0!
#1185
b111011100 /
b111011100 _
b111011100 .
b111011100 n
b111011000 -
b111011000 K
b111011000 0
b111011000 M
b111011000 Y
b111011000 `
b111011000 l
1!
#1190
0!
